info face="Arial" size=10 bold=0 italic=0 charset="" unicode=0 stretchH=100 smooth=1 aa=1 padding=0,0,0,0 spacing=2,2
common lineHeight=23 base=10 scaleW=108 scaleH=23 pages=1 packed=0
page id=0 file="ddz_jpq_01.png"
chars count=6
char id=49 x=0 y=0 width=18 height=23 xoffset=0 yoffset=0 xadvance=18 page=0 chnl=0 page=0 letter="1"
char id=50 x=18 y=0 width=18 height=23 xoffset=0 yoffset=0 xadvance=18 page=0 chnl=0 page=0 letter="2"
char id=51 x=36 y=0 width=18 height=23 xoffset=0 yoffset=0 xadvance=18 page=0 chnl=0 page=0 letter="3"
char id=52 x=54 y=0 width=18 height=23 xoffset=0 yoffset=0 xadvance=18 page=0 chnl=0 page=0 letter="4"
char id=48 x=72 y=0 width=18 height=23 xoffset=0 yoffset=0 xadvance=18 page=0 chnl=0 page=0 letter="0"
char id=32 x=90 y=0 width=18 height=23 xoffset=0 yoffset=0 xadvance=18 page=0 chnl=0 page=0 letter="space"