info face="Arial" size=10 bold=0 italic=0 charset="" unicode=0 stretchH=100 smooth=1 aa=1 padding=0,0,0,0 spacing=2,2
common lineHeight=28 base=10 scaleW=285 scaleH=28 pages=1 packed=0
page id=0 file="ddz_sz1.png"
chars count=16
char id=20159 x=0 y=0 width=28 height=28 xoffset=0 yoffset=0 xadvance=26 page=0 chnl=0 page=0 letter="亿"
char id=44 x=28 y=0 width=10 height=28 xoffset=0 yoffset=0 xadvance=8 page=0 chnl=0 page=0 letter=","
char id=48 x=38 y=0 width=17 height=28 xoffset=0 yoffset=0 xadvance=13 page=0 chnl=0 page=0 letter="0"
char id=49 x=55 y=0 width=12 height=28 xoffset=0 yoffset=0 xadvance=11 page=0 chnl=0 page=0 letter="1"
char id=50 x=67 y=0 width=17 height=28 xoffset=0 yoffset=0 xadvance=15 page=0 chnl=0 page=0 letter="2"
char id=51 x=84 y=0 width=17 height=28 xoffset=0 yoffset=0 xadvance=15 page=0 chnl=0 page=0 letter="3"
char id=52 x=101 y=0 width=19 height=28 xoffset=0 yoffset=0 xadvance=17 page=0 chnl=0 page=0 letter="4"
char id=53 x=120 y=0 width=17 height=28 xoffset=0 yoffset=0 xadvance=15 page=0 chnl=0 page=0 letter="5"
char id=54 x=137 y=0 width=17 height=28 xoffset=0 yoffset=0 xadvance=15 page=0 chnl=0 page=0 letter="6"
char id=55 x=154 y=0 width=17 height=28 xoffset=0 yoffset=0 xadvance=15 page=0 chnl=0 page=0 letter="7"
char id=56 x=171 y=0 width=17 height=28 xoffset=0 yoffset=0 xadvance=15 page=0 chnl=0 page=0 letter="8"
char id=57 x=188 y=0 width=17 height=28 xoffset=0 yoffset=0 xadvance=15 page=0 chnl=0 page=0 letter="9"
char id=46 x=205 y=0 width=9 height=28 xoffset=0 yoffset=0 xadvance=7 page=0 chnl=0 page=0 letter="."
char id=47 x=214 y=0 width=15 height=28 xoffset=0 yoffset=0 xadvance=13 page=0 chnl=0 page=0 letter="/"
char id=19975 x=229 y=0 width=28 height=28 xoffset=0 yoffset=0 xadvance=26 page=0 chnl=0 page=0 letter="万"
char id=32 x=257 y=0 width=28 height=28 xoffset=0 yoffset=0 xadvance=28 page=0 chnl=0 page=0 letter="space"