info face="Arial" size=10 bold=0 italic=0 charset="" unicode=0 stretchH=100 smooth=1 aa=1 padding=0,0,0,0 spacing=2,2
common lineHeight=27 base=10 scaleW=268 scaleH=27 pages=1 packed=0
page id=0 file="lhd_ztz.png"
chars count=16
char id=50 x=0 y=0 width=16 height=27 xoffset=0 yoffset=0 xadvance=17 page=0 chnl=0 page=0 letter="2"
char id=51 x=16 y=0 width=16 height=27 xoffset=0 yoffset=0 xadvance=16 page=0 chnl=0 page=0 letter="3"
char id=52 x=32 y=0 width=18 height=27 xoffset=0 yoffset=0 xadvance=18 page=0 chnl=0 page=0 letter="4"
char id=53 x=50 y=0 width=16 height=27 xoffset=0 yoffset=0 xadvance=16 page=0 chnl=0 page=0 letter="5"
char id=54 x=66 y=0 width=16 height=27 xoffset=0 yoffset=0 xadvance=16 page=0 chnl=0 page=0 letter="6"
char id=55 x=82 y=0 width=16 height=27 xoffset=0 yoffset=0 xadvance=16 page=0 chnl=0 page=0 letter="7"
char id=56 x=98 y=0 width=16 height=27 xoffset=0 yoffset=0 xadvance=16 page=0 chnl=0 page=0 letter="8"
char id=57 x=114 y=0 width=16 height=27 xoffset=0 yoffset=0 xadvance=16 page=0 chnl=0 page=0 letter="9"
char id=46 x=130 y=0 width=8 height=27 xoffset=0 yoffset=0 xadvance=8 page=0 chnl=0 page=0 letter="."
char id=47 x=138 y=0 width=14 height=27 xoffset=0 yoffset=0 xadvance=14 page=0 chnl=0 page=0 letter="/"
char id=19975 x=152 y=0 width=26 height=27 xoffset=0 yoffset=0 xadvance=26 page=0 chnl=0 page=0 letter="万"
char id=20159 x=178 y=0 width=26 height=27 xoffset=0 yoffset=0 xadvance=26 page=0 chnl=0 page=0 letter="亿"
char id=44 x=204 y=0 width=9 height=27 xoffset=0 yoffset=0 xadvance=9 page=0 chnl=0 page=0 letter=","
char id=48 x=213 y=0 width=18 height=27 xoffset=0 yoffset=0 xadvance=18 page=0 chnl=0 page=0 letter="0"
char id=49 x=231 y=0 width=11 height=27 xoffset=0 yoffset=0 xadvance=13 page=0 chnl=0 page=0 letter="1"
char id=32 x=242 y=0 width=26 height=27 xoffset=0 yoffset=0 xadvance=26 page=0 chnl=0 page=0 letter="space"