info face="Arial" size=10 bold=0 italic=0 charset="" unicode=0 stretchH=100 smooth=1 aa=1 padding=0,0,0,0 spacing=2,2
common lineHeight=55 base=10 scaleW=558 scaleH=55 pages=1 packed=0
page id=0 file="shuzi2.png"
chars count=14
char id=44 x=0 y=0 width=21 height=55 xoffset=0 yoffset=0 xadvance=18 page=0 chnl=0 page=0 letter=","
char id=48 x=21 y=0 width=45 height=55 xoffset=0 yoffset=0 xadvance=36 page=0 chnl=0 page=0 letter="0"
char id=49 x=66 y=0 width=45 height=55 xoffset=0 yoffset=0 xadvance=36 page=0 chnl=0 page=0 letter="1"
char id=50 x=111 y=0 width=45 height=55 xoffset=0 yoffset=0 xadvance=36 page=0 chnl=0 page=0 letter="2"
char id=51 x=156 y=0 width=45 height=55 xoffset=0 yoffset=0 xadvance=36 page=0 chnl=0 page=0 letter="3"
char id=52 x=201 y=0 width=45 height=55 xoffset=0 yoffset=0 xadvance=36 page=0 chnl=0 page=0 letter="4"
char id=53 x=246 y=0 width=45 height=55 xoffset=0 yoffset=0 xadvance=36 page=0 chnl=0 page=0 letter="5"
char id=54 x=291 y=0 width=45 height=55 xoffset=0 yoffset=0 xadvance=36 page=0 chnl=0 page=0 letter="6"
char id=55 x=336 y=0 width=45 height=55 xoffset=0 yoffset=0 xadvance=36 page=0 chnl=0 page=0 letter="7"
char id=56 x=381 y=0 width=45 height=55 xoffset=0 yoffset=0 xadvance=36 page=0 chnl=0 page=0 letter="8"
char id=57 x=426 y=0 width=45 height=55 xoffset=0 yoffset=0 xadvance=36 page=0 chnl=0 page=0 letter="9"
char id=46 x=471 y=0 width=21 height=55 xoffset=0 yoffset=0 xadvance=18 page=0 chnl=0 page=0 letter="."
char id=58 x=492 y=0 width=21 height=55 xoffset=0 yoffset=0 xadvance=18 page=0 chnl=0 page=0 letter=":"
char id=32 x=513 y=0 width=45 height=55 xoffset=0 yoffset=0 xadvance=36 page=0 chnl=0 page=0 letter="space"