info face="Arial" size=10 bold=0 italic=0 charset="" unicode=0 stretchH=100 smooth=1 aa=1 padding=0,0,0,0 spacing=2,2
common lineHeight=44 base=10 scaleW=475 scaleH=44 pages=1 packed=0
page id=0 file="ziti_1.png"
chars count=14
char id=20159 x=0 y=0 width=45 height=44 xoffset=0 yoffset=0 xadvance=34 page=0 chnl=0 page=0 letter="亿"
char id=43 x=45 y=0 width=28 height=44 xoffset=3 yoffset=-3 xadvance=22 page=0 chnl=0 page=0 letter="+"
char id=48 x=76 y=0 width=31 height=44 xoffset=0 yoffset=0 xadvance=22 page=0 chnl=0 page=0 letter="0"
char id=49 x=107 y=0 width=31 height=44 xoffset=1 yoffset=0 xadvance=22 page=0 chnl=0 page=0 letter="1"
char id=50 x=138 y=0 width=31 height=44 xoffset=0 yoffset=0 xadvance=22 page=0 chnl=0 page=0 letter="2"
char id=51 x=169 y=0 width=31 height=44 xoffset=0 yoffset=0 xadvance=22 page=0 chnl=0 page=0 letter="3"
char id=52 x=200 y=0 width=31 height=44 xoffset=0 yoffset=0 xadvance=22 page=0 chnl=0 page=0 letter="4"
char id=53 x=231 y=0 width=31 height=44 xoffset=0 yoffset=0 xadvance=22 page=0 chnl=0 page=0 letter="5"
char id=54 x=262 y=0 width=31 height=44 xoffset=0 yoffset=0 xadvance=22 page=0 chnl=0 page=0 letter="6"
char id=55 x=293 y=0 width=31 height=44 xoffset=0 yoffset=0 xadvance=22 page=0 chnl=0 page=0 letter="7"
char id=56 x=324 y=0 width=31 height=44 xoffset=0 yoffset=0 xadvance=22 page=0 chnl=0 page=0 letter="8"
char id=57 x=355 y=0 width=31 height=44 xoffset=0 yoffset=0 xadvance=22 page=0 chnl=0 page=0 letter="9"
char id=19975 x=386 y=0 width=44 height=44 xoffset=0 yoffset=0 xadvance=34 page=0 chnl=0 page=0 letter="万"
char id=46 x=436 y=0 width=18 height=44 xoffset=0 yoffset=0 xadvance=10 page=0 chnl=0 page=0 letter="."
