﻿info face="Arial" size=10 bold=0 italic=0 charset="" unicode=0 stretchH=100 smooth=1 aa=1 padding=0,0,0,0 spacing=2,2
common lineHeight=30 base=10 scaleW=300 scaleH=30 pages=1 packed=0
page id=0 file="zs_num.png"
chars count=19
char id=48 x=0 y=0 width=15 height=30 xoffset=0 yoffset=0 xadvance=11 page=0 chnl=0 page=0 letter="0"
char id=50 x=15 y=0 width=15 height=30 xoffset=0 yoffset=0 xadvance=11 page=0 chnl=0 page=0 letter="2"
char id=51 x=30 y=0 width=14 height=30 xoffset=0 yoffset=0 xadvance=10 page=0 chnl=0 page=0 letter="3"
char id=52 x=44 y=0 width=15 height=30 xoffset=0 yoffset=0 xadvance=11 page=0 chnl=0 page=0 letter="4"
char id=53 x=59 y=0 width=15 height=30 xoffset=0 yoffset=0 xadvance=11 page=0 chnl=0 page=0 letter="5"
char id=54 x=74 y=0 width=15 height=30 xoffset=0 yoffset=0 xadvance=11 page=0 chnl=0 page=0 letter="6"
char id=55 x=89 y=0 width=14 height=30 xoffset=0 yoffset=0 xadvance=10 page=0 chnl=0 page=0 letter="7"
char id=56 x=103 y=0 width=15 height=30 xoffset=0 yoffset=0 xadvance=11 page=0 chnl=0 page=0 letter="8"
char id=57 x=118 y=0 width=15 height=30 xoffset=0 yoffset=0 xadvance=11 page=0 chnl=0 page=0 letter="9"
char id=46 x=133 y=0 width=9 height=30 xoffset=0 yoffset=0 xadvance=5 page=0 chnl=0 page=0 letter="."
char id=19975 x=142 y=0 width=23 height=30 xoffset=0 yoffset=0 xadvance=19 page=0 chnl=0 page=0 letter="万"
char id=36192 x=165 y=0 width=23 height=30 xoffset=0 yoffset=0 xadvance=19 page=0 chnl=0 page=0 letter="赠"
char id=55 x=188 y=0 width=15 height=30 xoffset=0 yoffset=0 xadvance=11 page=0 chnl=0 page=0 letter="7"
char id=53 x=203 y=0 width=15 height=30 xoffset=0 yoffset=0 xadvance=11 page=0 chnl=0 page=0 letter="5"
char id=37 x=218 y=0 width=18 height=30 xoffset=0 yoffset=0 xadvance=14 page=0 chnl=0 page=0 letter="%"
char id=40 x=236 y=0 width=13 height=30 xoffset=0 yoffset=0 xadvance=9 page=0 chnl=0 page=0 letter="("
char id=41 x=249 y=0 width=14 height=30 xoffset=0 yoffset=0 xadvance=10 page=0 chnl=0 page=0 letter=")"
char id=32 x=277 y=0 width=14 height=30 xoffset=0 yoffset=0 xadvance=6 page=0 chnl=0 page=0 letter=" "
char id=49 x=263 y=0 width=14 height=30 xoffset=0 yoffset=0 xadvance=10 page=0 chnl=0 page=0 letter="1"
