{"file":"card_big_sheet-7134933dc5.png","frames":{
"cardC2_big_png":{"x":504,"y":912,"w":166,"h":226,"offX":1,"offY":1,"sourceW":168,"sourceH":228},
"cardC3_big_png":{"x":336,"y":912,"w":166,"h":226,"offX":1,"offY":1,"sourceW":168,"sourceH":228},
"cardC4_big_png":{"x":168,"y":912,"w":166,"h":226,"offX":1,"offY":1,"sourceW":168,"sourceH":228},
"cardC5_big_png":{"x":0,"y":912,"w":166,"h":226,"offX":1,"offY":1,"sourceW":168,"sourceH":228},
"cardC6_big_png":{"x":1848,"y":684,"w":166,"h":226,"offX":1,"offY":1,"sourceW":168,"sourceH":228},
"cardC7_big_png":{"x":1680,"y":684,"w":166,"h":226,"offX":1,"offY":1,"sourceW":168,"sourceH":228},
"cardC8_big_png":{"x":1512,"y":684,"w":166,"h":226,"offX":1,"offY":1,"sourceW":168,"sourceH":228},
"cardC9_big_png":{"x":1344,"y":684,"w":166,"h":226,"offX":1,"offY":1,"sourceW":168,"sourceH":228},
"cardC10_big_png":{"x":1176,"y":684,"w":166,"h":226,"offX":1,"offY":1,"sourceW":168,"sourceH":228},
"cardC11_big_png":{"x":1008,"y":684,"w":166,"h":226,"offX":1,"offY":1,"sourceW":168,"sourceH":228},
"cardC12_big_png":{"x":840,"y":684,"w":166,"h":226,"offX":1,"offY":1,"sourceW":168,"sourceH":228},
"cardC13_big_png":{"x":672,"y":684,"w":166,"h":226,"offX":1,"offY":1,"sourceW":168,"sourceH":228},
"cardD1_big_png":{"x":504,"y":684,"w":166,"h":226,"offX":1,"offY":1,"sourceW":168,"sourceH":228},
"cardD2_big_png":{"x":336,"y":684,"w":166,"h":226,"offX":1,"offY":1,"sourceW":168,"sourceH":228},
"cardD3_big_png":{"x":168,"y":684,"w":166,"h":226,"offX":1,"offY":1,"sourceW":168,"sourceH":228},
"cardD4_big_png":{"x":0,"y":684,"w":166,"h":226,"offX":1,"offY":1,"sourceW":168,"sourceH":228},
"cardD5_big_png":{"x":1848,"y":456,"w":166,"h":226,"offX":1,"offY":1,"sourceW":168,"sourceH":228},
"cardD6_big_png":{"x":1680,"y":456,"w":166,"h":226,"offX":1,"offY":1,"sourceW":168,"sourceH":228},
"cardD7_big_png":{"x":1512,"y":456,"w":166,"h":226,"offX":1,"offY":1,"sourceW":168,"sourceH":228},
"cardD8_big_png":{"x":1344,"y":456,"w":166,"h":226,"offX":1,"offY":1,"sourceW":168,"sourceH":228},
"cardD9_big_png":{"x":1176,"y":456,"w":166,"h":226,"offX":1,"offY":1,"sourceW":168,"sourceH":228},
"cardD10_big_png":{"x":1008,"y":456,"w":166,"h":226,"offX":1,"offY":1,"sourceW":168,"sourceH":228},
"cardD11_big_png":{"x":840,"y":456,"w":166,"h":226,"offX":1,"offY":1,"sourceW":168,"sourceH":228},
"cardD12_big_png":{"x":672,"y":456,"w":166,"h":226,"offX":1,"offY":1,"sourceW":168,"sourceH":228},
"cardD13_big_png":{"x":504,"y":456,"w":166,"h":226,"offX":1,"offY":1,"sourceW":168,"sourceH":228},
"cardH1_big_png":{"x":336,"y":456,"w":166,"h":226,"offX":1,"offY":1,"sourceW":168,"sourceH":228},
"cardH2_big_png":{"x":168,"y":456,"w":166,"h":226,"offX":1,"offY":1,"sourceW":168,"sourceH":228},
"cardH3_big_png":{"x":0,"y":456,"w":166,"h":226,"offX":1,"offY":1,"sourceW":168,"sourceH":228},
"cardH4_big_png":{"x":1848,"y":228,"w":166,"h":226,"offX":1,"offY":1,"sourceW":168,"sourceH":228},
"cardH5_big_png":{"x":1680,"y":228,"w":166,"h":226,"offX":1,"offY":1,"sourceW":168,"sourceH":228},
"cardH6_big_png":{"x":1512,"y":228,"w":166,"h":226,"offX":1,"offY":1,"sourceW":168,"sourceH":228},
"cardH7_big_png":{"x":1344,"y":228,"w":166,"h":226,"offX":1,"offY":1,"sourceW":168,"sourceH":228},
"cardH8_big_png":{"x":1176,"y":228,"w":166,"h":226,"offX":1,"offY":1,"sourceW":168,"sourceH":228},
"cardH9_big_png":{"x":1008,"y":228,"w":166,"h":226,"offX":1,"offY":1,"sourceW":168,"sourceH":228},
"cardH10_big_png":{"x":840,"y":228,"w":166,"h":226,"offX":1,"offY":1,"sourceW":168,"sourceH":228},
"cardH11_big_png":{"x":672,"y":228,"w":166,"h":226,"offX":1,"offY":1,"sourceW":168,"sourceH":228},
"cardH12_big_png":{"x":504,"y":228,"w":166,"h":226,"offX":1,"offY":1,"sourceW":168,"sourceH":228},
"cardH13_big_png":{"x":336,"y":228,"w":166,"h":226,"offX":1,"offY":1,"sourceW":168,"sourceH":228},
"cardS1_big_png":{"x":168,"y":228,"w":166,"h":226,"offX":1,"offY":1,"sourceW":168,"sourceH":228},
"cardS2_big_png":{"x":0,"y":228,"w":166,"h":226,"offX":1,"offY":1,"sourceW":168,"sourceH":228},
"cardS3_big_png":{"x":1848,"y":0,"w":166,"h":226,"offX":1,"offY":1,"sourceW":168,"sourceH":228},
"cardS4_big_png":{"x":1680,"y":0,"w":166,"h":226,"offX":1,"offY":1,"sourceW":168,"sourceH":228},
"cardS5_big_png":{"x":1512,"y":0,"w":166,"h":226,"offX":1,"offY":1,"sourceW":168,"sourceH":228},
"cardS6_big_png":{"x":1344,"y":0,"w":166,"h":226,"offX":1,"offY":1,"sourceW":168,"sourceH":228},
"cardS7_big_png":{"x":1176,"y":0,"w":166,"h":226,"offX":1,"offY":1,"sourceW":168,"sourceH":228},
"cardS8_big_png":{"x":1008,"y":0,"w":166,"h":226,"offX":1,"offY":1,"sourceW":168,"sourceH":228},
"cardS9_big_png":{"x":840,"y":0,"w":166,"h":226,"offX":1,"offY":1,"sourceW":168,"sourceH":228},
"cardS10_big_png":{"x":672,"y":0,"w":166,"h":226,"offX":1,"offY":1,"sourceW":168,"sourceH":228},
"cardS11_big_png":{"x":504,"y":0,"w":166,"h":226,"offX":1,"offY":1,"sourceW":168,"sourceH":228},
"cardS12_big_png":{"x":336,"y":0,"w":166,"h":226,"offX":1,"offY":1,"sourceW":168,"sourceH":228},
"cardS13_big_png":{"x":168,"y":0,"w":166,"h":226,"offX":1,"offY":1,"sourceW":168,"sourceH":228},
"poker-back_big_png":{"x":672,"y":912,"w":166,"h":223,"offX":1,"offY":3,"sourceW":168,"sourceH":228},
"cardC1_big_png":{"x":0,"y":0,"w":166,"h":226,"offX":1,"offY":1,"sourceW":168,"sourceH":228}}}