{"file":"road_sheet-6ac359c2ca.png","frames":{
"win3_road_win_t_png":{"x":750,"y":196,"w":48,"h":13,"offX":0,"offY":25,"sourceW":48,"sourceH":38},
"win3_road_win_p_png":{"x":658,"y":196,"w":48,"h":13,"offX":0,"offY":25,"sourceW":48,"sourceH":38},
"win3_road_win_d_png":{"x":550,"y":194,"w":48,"h":13,"offX":0,"offY":25,"sourceW":48,"sourceH":38},
"win3_road_p_title_zh_TW_png":{"x":236,"y":42,"w":36,"h":36,"offX":0,"offY":0,"sourceW":36,"sourceH":36},
"win3_road_p_title_zh_CN_png":{"x":198,"y":42,"w":36,"h":36,"offX":0,"offY":0,"sourceW":36,"sourceH":36},
"win3_road_p_title_en_US_png":{"x":160,"y":42,"w":36,"h":36,"offX":0,"offY":0,"sourceW":36,"sourceH":36},
"win3_road_d_title_zh_TW_png":{"x":122,"y":42,"w":36,"h":36,"offX":0,"offY":0,"sourceW":36,"sourceH":36},
"win3_road_d_title_zh_CN_png":{"x":84,"y":42,"w":36,"h":36,"offX":0,"offY":0,"sourceW":36,"sourceH":36},
"win3_road_d_title_en_US_png":{"x":978,"y":40,"w":36,"h":36,"offX":0,"offY":0,"sourceW":36,"sourceH":36},
"text_road_red_strflush_vi_VN_png":{"x":851,"y":76,"w":47,"h":22,"offX":0,"offY":1,"sourceW":48,"sourceH":38},
"text_road_red_straight_vi_VN_png":{"x":849,"y":359,"w":30,"h":14,"offX":6,"offY":4,"sourceW":48,"sourceH":38},
"text_road_red_pair_vi_VN_png":{"x":724,"y":387,"w":21,"h":14,"offX":3,"offY":4,"sourceW":48,"sourceH":38},
"text_road_red_kind_vi_VN_png":{"x":943,"y":381,"w":23,"h":14,"offX":11,"offY":5,"sourceW":48,"sourceH":38},
"text_road_red_highcard_vi_VN_png":{"x":746,"y":345,"w":31,"h":14,"offX":1,"offY":4,"sourceW":48,"sourceH":38},
"text_road_red_flush_vi_VN_png":{"x":636,"y":166,"w":40,"h":17,"offX":5,"offY":5,"sourceW":48,"sourceH":38},
"text_road_red_235_vi_VN_png":{"x":328,"y":102,"w":41,"h":24,"offX":2,"offY":0,"sourceW":48,"sourceH":38},
"text_road_blue_strflush_vi_VN_png":{"x":802,"y":76,"w":47,"h":22,"offX":0,"offY":1,"sourceW":48,"sourceH":38},
"text_road_blue_straight_vi_VN_png":{"x":161,"y":354,"w":30,"h":14,"offX":6,"offY":4,"sourceW":48,"sourceH":38},
"text_road_blue_pair_vi_VN_png":{"x":770,"y":387,"w":21,"h":14,"offX":3,"offY":4,"sourceW":48,"sourceH":38},
"text_road_blue_kind_vi_VN_png":{"x":750,"y":178,"w":23,"h":14,"offX":11,"offY":5,"sourceW":48,"sourceH":38},
"text_road_blue_highcard_vi_VN_png":{"x":779,"y":345,"w":31,"h":14,"offX":1,"offY":4,"sourceW":48,"sourceH":38},
"text_road_blue_flush_vi_VN_png":{"x":954,"y":171,"w":40,"h":17,"offX":5,"offY":5,"sourceW":48,"sourceH":38},
"text_road_blue_235_vi_VN_png":{"x":683,"y":102,"w":41,"h":24,"offX":2,"offY":0,"sourceW":48,"sourceH":38},
"text_road_black_straight_vi_VN_png":{"x":881,"y":359,"w":30,"h":14,"offX":8,"offY":4,"sourceW":48,"sourceH":38},
"text_road_black_pair_vi_VN_png":{"x":747,"y":387,"w":21,"h":14,"offX":3,"offY":4,"sourceW":48,"sourceH":38},
"text_road_black_kind_vi_VN_png":{"x":272,"y":381,"w":23,"h":14,"offX":11,"offY":5,"sourceW":48,"sourceH":38},
"text_road_black_highcard_vi_VN_png":{"x":713,"y":345,"w":31,"h":14,"offX":1,"offY":4,"sourceW":48,"sourceH":38},
"text_road_red_strflush_en_US_png":{"x":193,"y":362,"w":38,"h":10,"offX":5,"offY":7,"sourceW":48,"sourceH":38},
"text_road_red_strflushRB_en_US_png":{"x":756,"y":361,"w":38,"h":10,"offX":5,"offY":7,"sourceW":48,"sourceH":38},
"text_road_red_straight_en_US_png":{"x":704,"y":251,"w":44,"h":12,"offX":2,"offY":7,"sourceW":48,"sourceH":38},
"text_road_red_pair_en_US_png":{"x":290,"y":403,"w":22,"h":11,"offX":4,"offY":7,"sourceW":48,"sourceH":38},
"text_road_red_kind_en_US_png":{"x":985,"y":147,"w":35,"h":22,"offX":7,"offY":1,"sourceW":48,"sourceH":38},
"text_road_red_highcard_en_US_png":{"x":479,"y":176,"w":28,"h":23,"offX":1,"offY":1,"sourceW":48,"sourceH":38},
"text_road_red_flush_en_US_png":{"x":849,"y":375,"w":30,"h":11,"offX":9,"offY":7,"sourceW":48,"sourceH":38},
"text_road_red_flushRB_en_US_png":{"x":521,"y":375,"w":30,"h":11,"offX":9,"offY":7,"sourceW":48,"sourceH":38},
"text_road_red_235_en_US_png":{"x":489,"y":402,"w":22,"h":11,"offX":13,"offY":7,"sourceW":48,"sourceH":38},
"text_road_blue_strflush_en_US_png":{"x":318,"y":363,"w":38,"h":10,"offX":5,"offY":7,"sourceW":48,"sourceH":38},
"text_road_blue_straight_en_US_png":{"x":156,"y":264,"w":44,"h":12,"offX":2,"offY":7,"sourceW":48,"sourceH":38},
"text_road_blue_pair_en_US_png":{"x":897,"y":401,"w":22,"h":11,"offX":4,"offY":7,"sourceW":48,"sourceH":38},
"text_road_blue_kind_en_US_png":{"x":984,"y":123,"w":35,"h":22,"offX":7,"offY":1,"sourceW":48,"sourceH":38},
"text_road_blue_highcard_en_US_png":{"x":255,"y":190,"w":28,"h":23,"offX":1,"offY":1,"sourceW":48,"sourceH":38},
"text_road_blue_flush_en_US_png":{"x":358,"y":377,"w":30,"h":11,"offX":9,"offY":7,"sourceW":48,"sourceH":38},
"text_road_blue_235_en_US_png":{"x":724,"y":403,"w":22,"h":11,"offX":13,"offY":7,"sourceW":48,"sourceH":38},
"text_road_black_strflushRB_en_US_png":{"x":716,"y":361,"w":38,"h":10,"offX":5,"offY":7,"sourceW":48,"sourceH":38},
"text_road_black_straight_en_US_png":{"x":394,"y":262,"w":44,"h":12,"offX":2,"offY":7,"sourceW":48,"sourceH":38},
"text_road_black_pair_en_US_png":{"x":841,"y":402,"w":22,"h":11,"offX":4,"offY":7,"sourceW":48,"sourceH":38},
"text_road_black_kind_en_US_png":{"x":315,"y":148,"w":35,"h":22,"offX":7,"offY":1,"sourceW":48,"sourceH":38},
"text_road_black_highcard_en_US_png":{"x":366,"y":177,"w":28,"h":23,"offX":1,"offY":1,"sourceW":48,"sourceH":38},
"text_road_black_flushRB_en_US_png":{"x":881,"y":375,"w":30,"h":11,"offX":9,"offY":7,"sourceW":48,"sourceH":38},
"text_road_red_strflush_zh_TW_png":{"x":124,"y":354,"w":35,"h":12,"offX":7,"offY":5,"sourceW":48,"sourceH":38},
"text_road_red_strflushRB_zh_TW_png":{"x":371,"y":102,"w":27,"h":12,"offX":11,"offY":5,"sourceW":48,"sourceH":38},
"text_road_red_straight_zh_TW_png":{"x":789,"y":373,"w":28,"h":12,"offX":10,"offY":5,"sourceW":48,"sourceH":38},
"text_road_red_pair_zh_TW_png":{"x":507,"y":388,"w":24,"h":12,"offX":3,"offY":5,"sourceW":48,"sourceH":38},
"text_road_red_kind_zh_TW_png":{"x":759,"y":373,"w":28,"h":12,"offX":10,"offY":5,"sourceW":48,"sourceH":38},
"text_road_red_highcard_zh_TW_png":{"x":170,"y":388,"w":24,"h":12,"offX":3,"offY":5,"sourceW":48,"sourceH":38},
"text_road_red_flush_zh_TW_png":{"x":84,"y":379,"w":27,"h":12,"offX":11,"offY":5,"sourceW":48,"sourceH":38},
"text_road_red_flushRB_zh_TW_png":{"x":996,"y":381,"w":26,"h":12,"offX":11,"offY":5,"sourceW":48,"sourceH":38},
"text_road_red_235_zh_TW_png":{"x":325,"y":293,"w":42,"h":12,"offX":3,"offY":5,"sourceW":48,"sourceH":38},
"text_road_blue_strflush_zh_TW_png":{"x":355,"y":349,"w":35,"h":12,"offX":7,"offY":5,"sourceW":48,"sourceH":38},
"text_road_blue_straight_zh_TW_png":{"x":669,"y":373,"w":28,"h":12,"offX":10,"offY":5,"sourceW":48,"sourceH":38},
"text_road_blue_pair_zh_TW_png":{"x":349,"y":390,"w":24,"h":12,"offX":3,"offY":5,"sourceW":48,"sourceH":38},
"text_road_blue_kind_zh_TW_png":{"x":391,"y":373,"w":28,"h":12,"offX":10,"offY":5,"sourceW":48,"sourceH":38},
"text_road_blue_highcard_zh_TW_png":{"x":297,"y":389,"w":24,"h":12,"offX":3,"offY":5,"sourceW":48,"sourceH":38},
"text_road_blue_flush_zh_TW_png":{"x":243,"y":381,"w":27,"h":12,"offX":11,"offY":5,"sourceW":48,"sourceH":38},
"text_road_blue_235_zh_TW_png":{"x":148,"y":292,"w":42,"h":12,"offX":3,"offY":5,"sourceW":48,"sourceH":38},
"text_road_black_strflushRB_zh_TW_png":{"x":626,"y":378,"w":27,"h":12,"offX":11,"offY":5,"sourceW":48,"sourceH":38},
"text_road_black_straight_zh_TW_png":{"x":913,"y":371,"w":28,"h":12,"offX":10,"offY":5,"sourceW":48,"sourceH":38},
"text_road_black_pair_zh_TW_png":{"x":390,"y":387,"w":25,"h":12,"offX":3,"offY":5,"sourceW":48,"sourceH":38},
"text_road_black_kind_zh_TW_png":{"x":596,"y":371,"w":28,"h":12,"offX":10,"offY":5,"sourceW":48,"sourceH":38},
"text_road_black_highcard_zh_TW_png":{"x":443,"y":392,"w":24,"h":12,"offX":3,"offY":5,"sourceW":48,"sourceH":38},
"text_road_black_flushRB_zh_TW_png":{"x":968,"y":381,"w":26,"h":12,"offX":11,"offY":5,"sourceW":48,"sourceH":38},
"text_road_red_strflush_th_TH_png":{"x":678,"y":173,"w":32,"h":21,"offX":8,"offY":2,"sourceW":48,"sourceH":38},
"text_road_red_strflushRB_th_TH_png":{"x":516,"y":175,"w":32,"h":21,"offX":8,"offY":2,"sourceW":48,"sourceH":38},
"text_road_red_straight_th_TH_png":{"x":0,"y":401,"w":26,"h":10,"offX":12,"offY":8,"sourceW":48,"sourceH":38},
"text_road_red_pair_th_TH_png":{"x":428,"y":76,"w":9,"h":16,"offX":12,"offY":4,"sourceW":48,"sourceH":38},
"text_road_red_kind_th_TH_png":{"x":285,"y":193,"w":29,"h":22,"offX":9,"offY":1,"sourceW":48,"sourceH":38},
"text_road_red_highcard_th_TH_png":{"x":774,"y":60,"w":33,"h":14,"offX":0,"offY":5,"sourceW":48,"sourceH":38},
"text_road_red_flush_th_TH_png":{"x":945,"y":344,"w":34,"h":13,"offX":8,"offY":5,"sourceW":48,"sourceH":38},
"text_road_red_flushRB_th_TH_png":{"x":909,"y":344,"w":34,"h":13,"offX":8,"offY":5,"sourceW":48,"sourceH":38},
"text_road_red_235_th_TH_png":{"x":793,"y":401,"w":22,"h":11,"offX":13,"offY":7,"sourceW":48,"sourceH":38},
"text_road_blue_strflush_th_TH_png":{"x":400,"y":174,"w":32,"h":21,"offX":8,"offY":2,"sourceW":48,"sourceH":38},
"text_road_blue_straight_th_TH_png":{"x":28,"y":401,"w":26,"h":10,"offX":12,"offY":8,"sourceW":48,"sourceH":38},
"text_road_blue_pair_th_TH_png":{"x":1013,"y":206,"w":9,"h":16,"offX":12,"offY":4,"sourceW":48,"sourceH":38},
"text_road_blue_kind_th_TH_png":{"x":800,"y":196,"w":29,"h":22,"offX":9,"offY":1,"sourceW":48,"sourceH":38},
"text_road_blue_highcard_th_TH_png":{"x":655,"y":335,"w":33,"h":14,"offX":0,"offY":5,"sourceW":48,"sourceH":38},
"text_road_blue_flush_th_TH_png":{"x":159,"y":339,"w":34,"h":13,"offX":8,"offY":5,"sourceW":48,"sourceH":38},
"text_road_blue_235_th_TH_png":{"x":186,"y":402,"w":22,"h":11,"offX":13,"offY":7,"sourceW":48,"sourceH":38},
"text_road_black_strflushRB_th_TH_png":{"x":830,"y":173,"w":32,"h":21,"offX":8,"offY":2,"sourceW":48,"sourceH":38},
"text_road_black_straight_th_TH_png":{"x":375,"y":401,"w":26,"h":10,"offX":12,"offY":8,"sourceW":48,"sourceH":38},
"text_road_black_pair_th_TH_png":{"x":1013,"y":224,"w":9,"h":16,"offX":12,"offY":4,"sourceW":48,"sourceH":38},
"text_road_black_kind_th_TH_png":{"x":831,"y":196,"w":29,"h":22,"offX":9,"offY":1,"sourceW":48,"sourceH":38},
"text_road_black_highcard_th_TH_png":{"x":124,"y":337,"w":33,"h":14,"offX":0,"offY":5,"sourceW":48,"sourceH":38},
"text_road_black_flushRB_th_TH_png":{"x":873,"y":344,"w":34,"h":13,"offX":8,"offY":5,"sourceW":48,"sourceH":38},
"roadIcon_P_zh_TW_png":{"x":344,"y":307,"w":22,"h":22,"offX":0,"offY":0,"sourceW":22,"sourceH":22},
"roadIcon_P_zh_CN_png":{"x":320,"y":307,"w":22,"h":22,"offX":0,"offY":0,"sourceW":22,"sourceH":22},
"roadIcon_P_en_US_png":{"x":148,"y":306,"w":22,"h":22,"offX":0,"offY":0,"sourceW":22,"sourceH":22},
"roadIcon_D_zh_TW_png":{"x":220,"y":338,"w":21,"h":22,"offX":0,"offY":0,"sourceW":21,"sourceH":22},
"roadIcon_D_zh_CN_png":{"x":690,"y":337,"w":21,"h":22,"offX":0,"offY":0,"sourceW":21,"sourceH":22},
"roadIcon_D_en_US_png":{"x":1001,"y":320,"w":21,"h":22,"offX":0,"offY":0,"sourceW":21,"sourceH":22},
"text_road_red_strflush_ko_KR_png":{"x":156,"y":80,"w":44,"h":23,"offX":2,"offY":1,"sourceW":48,"sourceH":38},
"text_road_red_strflushRB_ko_KR_png":{"x":110,"y":80,"w":44,"h":23,"offX":2,"offY":1,"sourceW":48,"sourceH":38},
"text_road_red_straight_ko_KR_png":{"x":43,"y":206,"w":48,"h":12,"offX":0,"offY":7,"sourceW":48,"sourceH":38},
"text_road_red_pair_ko_KR_png":{"x":69,"y":393,"w":23,"h":12,"offX":3,"offY":6,"sourceW":48,"sourceH":38},
"text_road_red_kind_ko_KR_png":{"x":497,"y":249,"w":46,"h":12,"offX":1,"offY":7,"sourceW":48,"sourceH":38},
"text_road_red_highcard_ko_KR_png":{"x":646,"y":135,"w":34,"h":11,"offX":1,"offY":7,"sourceW":48,"sourceH":38},
"text_road_red_flush_ko_KR_png":{"x":318,"y":348,"w":35,"h":12,"offX":7,"offY":7,"sourceW":48,"sourceH":38},
"text_road_red_flushRB_ko_KR_png":{"x":812,"y":359,"w":35,"h":12,"offX":7,"offY":7,"sourceW":48,"sourceH":38},
"text_road_red_235_ko_KR_png":{"x":939,"y":123,"w":43,"h":22,"offX":2,"offY":1,"sourceW":48,"sourceH":38},
"text_road_blue_strflush_ko_KR_png":{"x":64,"y":80,"w":44,"h":23,"offX":2,"offY":1,"sourceW":48,"sourceH":38},
"text_road_blue_straight_ko_KR_png":{"x":959,"y":205,"w":48,"h":12,"offX":0,"offY":7,"sourceW":48,"sourceH":38},
"text_road_blue_pair_ko_KR_png":{"x":94,"y":395,"w":23,"h":12,"offX":3,"offY":6,"sourceW":48,"sourceH":38},
"text_road_blue_kind_ko_KR_png":{"x":156,"y":250,"w":46,"h":12,"offX":1,"offY":7,"sourceW":48,"sourceH":38},
"text_road_blue_highcard_ko_KR_png":{"x":633,"y":365,"w":34,"h":11,"offX":1,"offY":7,"sourceW":48,"sourceH":38},
"text_road_blue_flush_ko_KR_png":{"x":559,"y":358,"w":35,"h":12,"offX":7,"offY":7,"sourceW":48,"sourceH":38},
"text_road_blue_235_ko_KR_png":{"x":601,"y":115,"w":43,"h":22,"offX":2,"offY":1,"sourceW":48,"sourceH":38},
"text_road_black_strflushRB_ko_KR_png":{"x":978,"y":78,"w":44,"h":23,"offX":2,"offY":1,"sourceW":48,"sourceH":38},
"text_road_black_straight_ko_KR_png":{"x":909,"y":205,"w":48,"h":12,"offX":0,"offY":7,"sourceW":48,"sourceH":38},
"text_road_black_pair_ko_KR_png":{"x":222,"y":395,"w":23,"h":12,"offX":3,"offY":6,"sourceW":48,"sourceH":38},
"text_road_black_kind_ko_KR_png":{"x":852,"y":246,"w":46,"h":12,"offX":1,"offY":7,"sourceW":48,"sourceH":38},
"text_road_black_highcard_ko_KR_png":{"x":522,"y":362,"w":34,"h":11,"offX":1,"offY":7,"sourceW":48,"sourceH":38},
"text_road_black_flushRB_ko_KR_png":{"x":638,"y":351,"w":35,"h":12,"offX":7,"offY":7,"sourceW":48,"sourceH":38},
"text_road_red_strflush_ja_JP_png":{"x":647,"y":211,"w":47,"h":12,"offX":1,"offY":5,"sourceW":48,"sourceH":38},
"text_road_red_strflushRB_ja_JP_png":{"x":194,"y":210,"w":47,"h":12,"offX":1,"offY":5,"sourceW":48,"sourceH":38},
"text_road_red_straight_ja_JP_png":{"x":490,"y":277,"w":46,"h":11,"offX":1,"offY":5,"sourceW":48,"sourceH":38},
"text_road_red_pair_ja_JP_png":{"x":845,"y":388,"w":24,"h":12,"offX":4,"offY":5,"sourceW":48,"sourceH":38},
"text_road_red_kind_ja_JP_png":{"x":729,"y":373,"w":28,"h":12,"offX":10,"offY":5,"sourceW":48,"sourceH":38},
"text_road_red_highcard_ja_JP_png":{"x":977,"y":367,"w":31,"h":12,"offX":0,"offY":5,"sourceW":48,"sourceH":38},
"text_road_red_flush_ja_JP_png":{"x":543,"y":263,"w":44,"h":12,"offX":2,"offY":5,"sourceW":48,"sourceH":38},
"text_road_red_flushRB_ja_JP_png":{"x":148,"y":278,"w":42,"h":12,"offX":4,"offY":5,"sourceW":48,"sourceH":38},
"text_road_red_235_ja_JP_png":{"x":534,"y":290,"w":42,"h":12,"offX":3,"offY":5,"sourceW":48,"sourceH":38},
"text_road_blue_strflush_ja_JP_png":{"x":525,"y":209,"w":47,"h":12,"offX":1,"offY":5,"sourceW":48,"sourceH":38},
"text_road_blue_straight_ja_JP_png":{"x":538,"y":277,"w":46,"h":11,"offX":1,"offY":5,"sourceW":48,"sourceH":38},
"text_road_blue_pair_ja_JP_png":{"x":196,"y":388,"w":24,"h":12,"offX":4,"offY":5,"sourceW":48,"sourceH":38},
"text_road_blue_kind_ja_JP_png":{"x":183,"y":374,"w":28,"h":12,"offX":10,"offY":5,"sourceW":48,"sourceH":38},
"text_road_blue_highcard_ja_JP_png":{"x":358,"y":363,"w":31,"h":12,"offX":0,"offY":5,"sourceW":48,"sourceH":38},
"text_road_blue_flush_ja_JP_png":{"x":852,"y":260,"w":44,"h":12,"offX":2,"offY":5,"sourceW":48,"sourceH":38},
"text_road_blue_235_ja_JP_png":{"x":701,"y":279,"w":42,"h":12,"offX":3,"offY":5,"sourceW":48,"sourceH":38},
"text_road_black_strflushRB_ja_JP_png":{"x":747,"y":211,"w":47,"h":12,"offX":1,"offY":5,"sourceW":48,"sourceH":38},
"text_road_black_straight_ja_JP_png":{"x":78,"y":268,"w":43,"h":12,"offX":3,"offY":5,"sourceW":48,"sourceH":38},
"text_road_black_pair_ja_JP_png":{"x":819,"y":387,"w":24,"h":12,"offX":4,"offY":5,"sourceW":48,"sourceH":38},
"text_road_black_kind_ja_JP_png":{"x":298,"y":375,"w":28,"h":12,"offX":10,"offY":5,"sourceW":48,"sourceH":38},
"text_road_black_highcard_ja_JP_png":{"x":434,"y":364,"w":31,"h":12,"offX":0,"offY":5,"sourceW":48,"sourceH":38},
"text_road_black_flushRB_ja_JP_png":{"x":192,"y":281,"w":42,"h":12,"offX":4,"offY":5,"sourceW":48,"sourceH":38},
"text_road_red_strflush_id_ID_png":{"x":696,"y":76,"w":46,"h":24,"offX":1,"offY":1,"sourceW":48,"sourceH":38},
"text_road_red_strflushRB_id_ID_png":{"x":352,"y":76,"w":46,"h":24,"offX":1,"offY":1,"sourceW":48,"sourceH":38},
"text_road_red_straight_id_ID_png":{"x":202,"y":267,"w":44,"h":12,"offX":2,"offY":7,"sourceW":48,"sourceH":38},
"text_road_red_pair_id_ID_png":{"x":637,"y":401,"w":22,"h":11,"offX":4,"offY":7,"sourceW":48,"sourceH":38},
"text_road_red_kind_id_ID_png":{"x":425,"y":134,"w":42,"h":22,"offX":3,"offY":1,"sourceW":48,"sourceH":38},
"text_road_red_highcard_id_ID_png":{"x":693,"y":148,"w":32,"h":23,"offX":1,"offY":1,"sourceW":48,"sourceH":38},
"text_road_red_flush_id_ID_png":{"x":478,"y":201,"w":45,"h":13,"offX":2,"offY":7,"sourceW":48,"sourceH":38},
"text_road_red_flushRB_id_ID_png":{"x":835,"y":140,"w":45,"h":13,"offX":2,"offY":7,"sourceW":48,"sourceH":38},
"text_road_red_235_id_ID_png":{"x":162,"y":402,"w":22,"h":11,"offX":13,"offY":7,"sourceW":48,"sourceH":38},
"text_road_blue_strflush_id_ID_png":{"x":439,"y":68,"w":46,"h":24,"offX":1,"offY":1,"sourceW":48,"sourceH":38},
"text_road_blue_straight_id_ID_png":{"x":497,"y":263,"w":44,"h":12,"offX":2,"offY":7,"sourceW":48,"sourceH":38},
"text_road_blue_pair_id_ID_png":{"x":865,"y":402,"w":22,"h":11,"offX":4,"offY":7,"sourceW":48,"sourceH":38},
"text_road_blue_kind_id_ID_png":{"x":884,"y":131,"w":42,"h":22,"offX":3,"offY":1,"sourceW":48,"sourceH":38},
"text_road_blue_highcard_id_ID_png":{"x":166,"y":105,"w":32,"h":23,"offX":1,"offY":1,"sourceW":48,"sourceH":38},
"text_road_blue_flush_id_ID_png":{"x":600,"y":203,"w":45,"h":13,"offX":2,"offY":7,"sourceW":48,"sourceH":38},
"text_road_blue_235_id_ID_png":{"x":314,"y":403,"w":22,"h":11,"offX":13,"offY":7,"sourceW":48,"sourceH":38},
"text_road_black_strflushRB_id_ID_png":{"x":453,"y":42,"w":46,"h":24,"offX":1,"offY":1,"sourceW":48,"sourceH":38},
"text_road_black_straight_id_ID_png":{"x":704,"y":265,"w":44,"h":12,"offX":2,"offY":7,"sourceW":48,"sourceH":38},
"text_road_black_pair_id_ID_png":{"x":817,"y":401,"w":22,"h":11,"offX":4,"offY":7,"sourceW":48,"sourceH":38},
"text_road_black_kind_id_ID_png":{"x":540,"y":133,"w":42,"h":22,"offX":3,"offY":1,"sourceW":48,"sourceH":38},
"text_road_black_highcard_id_ID_png":{"x":888,"y":155,"w":32,"h":23,"offX":1,"offY":1,"sourceW":48,"sourceH":38},
"text_road_black_flushRB_id_ID_png":{"x":862,"y":205,"w":45,"h":13,"offX":2,"offY":7,"sourceW":48,"sourceH":38},
"text_road_red_strflush_es_ES_png":{"x":364,"y":136,"w":41,"h":22,"offX":4,"offY":1,"sourceW":48,"sourceH":38},
"text_road_red_straight_es_ES_png":{"x":675,"y":361,"w":39,"h":10,"offX":5,"offY":8,"sourceW":48,"sourceH":38},
"text_road_red_pair_es_ES_png":{"x":119,"y":395,"w":21,"h":13,"offX":4,"offY":5,"sourceW":48,"sourceH":38},
"text_road_red_kind_es_ES_png":{"x":0,"y":368,"w":26,"h":14,"offX":9,"offY":5,"sourceW":48,"sourceH":38},
"text_road_red_highcard_es_ES_png":{"x":258,"y":165,"w":30,"h":23,"offX":2,"offY":0,"sourceW":48,"sourceH":38},
"text_road_red_flush_es_ES_png":{"x":837,"y":344,"w":34,"h":13,"offX":8,"offY":6,"sourceW":48,"sourceH":38},
"text_road_red_235_es_ES_png":{"x":553,"y":402,"w":22,"h":11,"offX":13,"offY":7,"sourceW":48,"sourceH":38},
"text_road_blue_strflush_es_ES_png":{"x":736,"y":137,"w":41,"h":22,"offX":4,"offY":1,"sourceW":48,"sourceH":38},
"text_road_blue_straight_es_ES_png":{"x":392,"y":361,"w":40,"h":10,"offX":4,"offY":8,"sourceW":48,"sourceH":38},
"text_road_blue_pair_es_ES_png":{"x":247,"y":395,"w":21,"h":13,"offX":4,"offY":5,"sourceW":48,"sourceH":38},
"text_road_blue_kind_es_ES_png":{"x":550,"y":175,"w":26,"h":14,"offX":9,"offY":5,"sourceW":48,"sourceH":38},
"text_road_blue_highcard_es_ES_png":{"x":98,"y":163,"w":30,"h":23,"offX":2,"offY":0,"sourceW":48,"sourceH":38},
"text_road_blue_flush_es_ES_png":{"x":560,"y":343,"w":34,"h":13,"offX":8,"offY":6,"sourceW":48,"sourceH":38},
"text_road_blue_235_es_ES_png":{"x":577,"y":402,"w":22,"h":11,"offX":13,"offY":7,"sourceW":48,"sourceH":38},
"text_road_black_straight_es_ES_png":{"x":913,"y":359,"w":40,"h":10,"offX":3,"offY":8,"sourceW":47,"sourceH":38},
"text_road_black_pair_es_ES_png":{"x":968,"y":395,"w":21,"h":13,"offX":4,"offY":5,"sourceW":48,"sourceH":38},
"text_road_black_kind_es_ES_png":{"x":996,"y":171,"w":26,"h":14,"offX":9,"offY":5,"sourceW":48,"sourceH":38},
"text_road_black_highcard_es_ES_png":{"x":922,"y":164,"w":30,"h":23,"offX":2,"offY":0,"sourceW":48,"sourceH":38},
"text_road_red_strflush_zh_CN_png":{"x":596,"y":357,"w":35,"h":12,"offX":7,"offY":5,"sourceW":48,"sourceH":38},
"text_road_red_strflushRB_zh_CN_png":{"x":113,"y":381,"w":27,"h":12,"offX":11,"offY":5,"sourceW":48,"sourceH":38},
"text_road_red_straight_zh_CN_png":{"x":558,"y":372,"w":28,"h":12,"offX":10,"offY":5,"sourceW":48,"sourceH":38},
"text_road_red_pair_zh_CN_png":{"x":611,"y":392,"w":24,"h":12,"offX":3,"offY":5,"sourceW":48,"sourceH":38},
"text_road_red_kind_zh_CN_png":{"x":491,"y":368,"w":28,"h":12,"offX":10,"offY":5,"sourceW":48,"sourceH":38},
"text_road_red_highcard_zh_CN_png":{"x":323,"y":389,"w":24,"h":12,"offX":3,"offY":5,"sourceW":48,"sourceH":38},
"text_road_red_flush_zh_CN_png":{"x":130,"y":163,"w":27,"h":12,"offX":11,"offY":5,"sourceW":48,"sourceH":38},
"text_road_red_flushRB_zh_CN_png":{"x":479,"y":382,"w":26,"h":12,"offX":11,"offY":5,"sourceW":48,"sourceH":38},
"text_road_red_235_zh_CN_png":{"x":490,"y":290,"w":42,"h":12,"offX":3,"offY":5,"sourceW":48,"sourceH":38},
"text_road_blue_strflush_zh_CN_png":{"x":522,"y":348,"w":35,"h":12,"offX":7,"offY":5,"sourceW":48,"sourceH":38},
"text_road_blue_straight_zh_CN_png":{"x":819,"y":373,"w":28,"h":12,"offX":10,"offY":5,"sourceW":48,"sourceH":38},
"text_road_blue_pair_zh_CN_png":{"x":417,"y":392,"w":24,"h":12,"offX":3,"offY":5,"sourceW":48,"sourceH":38},
"text_road_blue_kind_zh_CN_png":{"x":699,"y":373,"w":28,"h":12,"offX":10,"offY":5,"sourceW":48,"sourceH":38},
"text_road_blue_highcard_zh_CN_png":{"x":793,"y":387,"w":24,"h":12,"offX":3,"offY":5,"sourceW":48,"sourceH":38},
"text_road_blue_flush_zh_CN_png":{"x":450,"y":378,"w":27,"h":12,"offX":11,"offY":5,"sourceW":48,"sourceH":38},
"text_road_blue_235_zh_CN_png":{"x":75,"y":282,"w":42,"h":12,"offX":3,"offY":5,"sourceW":48,"sourceH":38},
"text_road_black_strflushRB_zh_CN_png":{"x":421,"y":378,"w":27,"h":12,"offX":11,"offY":5,"sourceW":48,"sourceH":38},
"text_road_black_straight_zh_CN_png":{"x":213,"y":374,"w":28,"h":12,"offX":10,"offY":5,"sourceW":48,"sourceH":38},
"text_road_black_pair_zh_CN_png":{"x":655,"y":387,"w":25,"h":12,"offX":3,"offY":5,"sourceW":48,"sourceH":38},
"text_road_black_kind_zh_CN_png":{"x":328,"y":375,"w":28,"h":12,"offX":10,"offY":5,"sourceW":48,"sourceH":38},
"text_road_black_highcard_zh_CN_png":{"x":871,"y":388,"w":24,"h":12,"offX":3,"offY":5,"sourceW":48,"sourceH":38},
"text_road_black_flushRB_zh_CN_png":{"x":142,"y":383,"w":26,"h":12,"offX":11,"offY":5,"sourceW":48,"sourceH":38},
"war_road_win_t_png":{"x":265,"y":368,"w":31,"h":11,"offX":0,"offY":0,"sourceW":31,"sourceH":11},
"war_road_win_p_png":{"x":117,"y":368,"w":31,"h":11,"offX":0,"offY":0,"sourceW":31,"sourceH":11},
"war_road_win_b_png":{"x":150,"y":370,"w":31,"h":11,"offX":0,"offY":0,"sourceW":31,"sourceH":11},
"road_title_player_zh_TW_png":{"x":400,"y":76,"w":26,"h":38,"offX":0,"offY":0,"sourceW":26,"sourceH":38},
"road_title_player_zh_CN_png":{"x":988,"y":0,"w":26,"h":38,"offX":0,"offY":0,"sourceW":26,"sourceH":38},
"road_title_player_en_US_png":{"x":856,"y":100,"w":26,"h":38,"offX":0,"offY":0,"sourceW":26,"sourceH":38},
"road_title_banker_zh_TW_png":{"x":828,"y":100,"w":26,"h":38,"offX":0,"offY":0,"sourceW":26,"sourceH":38},
"road_title_banker_zh_CN_png":{"x":800,"y":100,"w":26,"h":38,"offX":0,"offY":0,"sourceW":26,"sourceH":38},
"road_title_banker_en_US_png":{"x":512,"y":100,"w":26,"h":38,"offX":0,"offY":0,"sourceW":26,"sourceH":38},
"roadIconT5_zh_TW_png":{"x":900,"y":245,"w":24,"h":24,"offX":0,"offY":0,"sourceW":24,"sourceH":24},
"roadIconT5_zh_CN_png":{"x":590,"y":244,"w":24,"h":24,"offX":0,"offY":0,"sourceW":24,"sourceH":24},
"roadIconT5_en_US_png":{"x":249,"y":243,"w":24,"h":24,"offX":0,"offY":0,"sourceW":24,"sourceH":24},
"roadIconP5_zh_TW_png":{"x":678,"y":242,"w":24,"h":24,"offX":0,"offY":0,"sourceW":24,"sourceH":24},
"roadIconP5_zh_CN_png":{"x":471,"y":242,"w":24,"h":24,"offX":0,"offY":0,"sourceW":24,"sourceH":24},
"roadIconP5_en_US_png":{"x":445,"y":242,"w":24,"h":24,"offX":0,"offY":0,"sourceW":24,"sourceH":24},
"roadIconB5_zh_TW_png":{"x":368,"y":242,"w":24,"h":24,"offX":0,"offY":0,"sourceW":24,"sourceH":24},
"roadIconB5_zh_CN_png":{"x":295,"y":242,"w":24,"h":24,"offX":0,"offY":0,"sourceW":24,"sourceH":24},
"roadIconB5_en_US_png":{"x":130,"y":242,"w":24,"h":24,"offX":0,"offY":0,"sourceW":24,"sourceH":24},
"text_card_red9_png":{"x":990,"y":412,"w":9,"h":12,"offX":3,"offY":2,"sourceW":14,"sourceH":16},
"text_card_red8_png":{"x":979,"y":410,"w":9,"h":12,"offX":3,"offY":2,"sourceW":14,"sourceH":16},
"text_card_red7_png":{"x":968,"y":410,"w":9,"h":12,"offX":3,"offY":2,"sourceW":14,"sourceH":16},
"text_card_red6_png":{"x":255,"y":410,"w":9,"h":12,"offX":3,"offY":2,"sourceW":14,"sourceH":16},
"text_card_red5_png":{"x":646,"y":115,"w":7,"h":12,"offX":4,"offY":2,"sourceW":14,"sourceH":16},
"text_card_red4_png":{"x":244,"y":410,"w":9,"h":12,"offX":3,"offY":2,"sourceW":14,"sourceH":16},
"text_card_red3_png":{"x":384,"y":413,"w":7,"h":12,"offX":4,"offY":2,"sourceW":14,"sourceH":16},
"text_card_red2_png":{"x":374,"y":413,"w":8,"h":12,"offX":3,"offY":2,"sourceW":14,"sourceH":16},
"text_card_red13_png":{"x":128,"y":410,"w":9,"h":12,"offX":3,"offY":2,"sourceW":14,"sourceH":16},
"text_card_red12_png":{"x":204,"y":250,"w":13,"h":13,"offX":1,"offY":2,"sourceW":14,"sourceH":16},
"text_card_red11_png":{"x":1016,"y":0,"w":6,"h":12,"offX":4,"offY":2,"sourceW":14,"sourceH":16},
"text_card_red10_png":{"x":545,"y":249,"w":14,"h":12,"offX":0,"offY":2,"sourceW":14,"sourceH":16},
"text_card_red1_png":{"x":82,"y":409,"w":11,"h":12,"offX":2,"offY":2,"sourceW":14,"sourceH":16},
"text_card_blue9_png":{"x":106,"y":409,"w":9,"h":12,"offX":3,"offY":2,"sourceW":14,"sourceH":16},
"text_card_blue8_png":{"x":95,"y":409,"w":9,"h":12,"offX":3,"offY":2,"sourceW":14,"sourceH":16},
"text_card_blue7_png":{"x":44,"y":413,"w":9,"h":12,"offX":3,"offY":2,"sourceW":14,"sourceH":16},
"text_card_blue6_png":{"x":33,"y":413,"w":9,"h":12,"offX":3,"offY":2,"sourceW":14,"sourceH":16},
"text_card_blue5_png":{"x":900,"y":220,"w":7,"h":12,"offX":4,"offY":2,"sourceW":14,"sourceH":16},
"text_card_blue4_png":{"x":22,"y":413,"w":9,"h":12,"offX":3,"offY":2,"sourceW":14,"sourceH":16},
"text_card_blue3_png":{"x":393,"y":413,"w":7,"h":12,"offX":4,"offY":2,"sourceW":14,"sourceH":16},
"text_card_blue2_png":{"x":74,"y":60,"w":8,"h":12,"offX":3,"offY":2,"sourceW":14,"sourceH":16},
"text_card_blue13_png":{"x":11,"y":413,"w":9,"h":12,"offX":3,"offY":2,"sourceW":14,"sourceH":16},
"text_card_blue12_png":{"x":678,"y":225,"w":13,"h":13,"offX":1,"offY":2,"sourceW":14,"sourceH":16},
"text_card_blue11_png":{"x":1016,"y":28,"w":6,"h":12,"offX":4,"offY":2,"sourceW":14,"sourceH":16},
"text_card_blue10_png":{"x":351,"y":331,"w":14,"h":12,"offX":0,"offY":2,"sourceW":14,"sourceH":16},
"text_card_blue1_png":{"x":69,"y":407,"w":11,"h":12,"offX":2,"offY":2,"sourceW":14,"sourceH":16},
"text_card_black9_png":{"x":117,"y":410,"w":9,"h":12,"offX":3,"offY":2,"sourceW":14,"sourceH":16},
"text_card_black8_png":{"x":233,"y":409,"w":9,"h":12,"offX":3,"offY":2,"sourceW":14,"sourceH":16},
"text_card_black7_png":{"x":222,"y":409,"w":9,"h":12,"offX":3,"offY":2,"sourceW":14,"sourceH":16},
"text_card_black6_png":{"x":0,"y":413,"w":9,"h":12,"offX":3,"offY":2,"sourceW":14,"sourceH":16},
"text_card_black5_png":{"x":516,"y":158,"w":7,"h":12,"offX":4,"offY":2,"sourceW":14,"sourceH":16},
"text_card_black4_png":{"x":1012,"y":412,"w":9,"h":12,"offX":3,"offY":2,"sourceW":14,"sourceH":16},
"text_card_black3_png":{"x":431,"y":276,"w":7,"h":12,"offX":4,"offY":2,"sourceW":14,"sourceH":16},
"text_card_black2_png":{"x":417,"y":314,"w":8,"h":12,"offX":3,"offY":2,"sourceW":14,"sourceH":16},
"text_card_black13_png":{"x":1001,"y":412,"w":9,"h":12,"offX":3,"offY":2,"sourceW":14,"sourceH":16},
"text_card_black12_png":{"x":78,"y":220,"w":13,"h":13,"offX":1,"offY":2,"sourceW":14,"sourceH":16},
"text_card_black11_png":{"x":1016,"y":14,"w":6,"h":12,"offX":4,"offY":2,"sourceW":14,"sourceH":16},
"text_card_black10_png":{"x":857,"y":299,"w":14,"h":12,"offX":0,"offY":2,"sourceW":14,"sourceH":16},
"text_card_black1_png":{"x":596,"y":343,"w":11,"h":12,"offX":2,"offY":2,"sourceW":14,"sourceH":16},
"card_icon_spade_png":{"x":222,"y":295,"w":12,"h":14,"offX":1,"offY":1,"sourceW":14,"sourceH":16},
"card_icon_heart_png":{"x":525,"y":140,"w":13,"h":13,"offX":1,"offY":2,"sourceW":14,"sourceH":16},
"card_icon_diamond_png":{"x":761,"y":403,"w":11,"h":14,"offX":2,"offY":1,"sourceW":14,"sourceH":16},
"card_icon_club_png":{"x":962,"y":58,"w":13,"h":13,"offX":1,"offY":2,"sourceW":14,"sourceH":16},
"roadIconRed6_png":{"x":296,"y":297,"w":22,"h":22,"offX":0,"offY":0,"sourceW":22,"sourceH":22},
"roadIconRed5_png":{"x":48,"y":297,"w":22,"h":22,"offX":0,"offY":0,"sourceW":22,"sourceH":22},
"roadIconRed4_png":{"x":24,"y":297,"w":22,"h":22,"offX":0,"offY":0,"sourceW":22,"sourceH":22},
"roadIconRed3_png":{"x":995,"y":296,"w":22,"h":22,"offX":0,"offY":0,"sourceW":22,"sourceH":22},
"roadIconRed2_png":{"x":971,"y":296,"w":22,"h":22,"offX":0,"offY":0,"sourceW":22,"sourceH":22},
"roadIconRed1_png":{"x":947,"y":296,"w":22,"h":22,"offX":0,"offY":0,"sourceW":22,"sourceH":22},
"roadIconBlue6_png":{"x":923,"y":296,"w":22,"h":22,"offX":0,"offY":0,"sourceW":22,"sourceH":22},
"roadIconBlue5_png":{"x":899,"y":296,"w":22,"h":22,"offX":0,"offY":0,"sourceW":22,"sourceH":22},
"roadIconBlue4_png":{"x":875,"y":296,"w":22,"h":22,"offX":0,"offY":0,"sourceW":22,"sourceH":22},
"roadIconBlue3_png":{"x":75,"y":296,"w":22,"h":22,"offX":0,"offY":0,"sourceW":22,"sourceH":22},
"roadIconBlue2_png":{"x":607,"y":295,"w":22,"h":22,"offX":0,"offY":0,"sourceW":22,"sourceH":22},
"roadIconBlue1_png":{"x":465,"y":293,"w":22,"h":22,"offX":0,"offY":0,"sourceW":22,"sourceH":22},
"text_black_9_png":{"x":661,"y":401,"w":11,"h":15,"offX":0,"offY":0,"sourceW":11,"sourceH":15},
"text_black_8_png":{"x":403,"y":401,"w":11,"h":15,"offX":0,"offY":0,"sourceW":11,"sourceH":15},
"text_black_7_png":{"x":56,"y":401,"w":11,"h":15,"offX":0,"offY":0,"sourceW":11,"sourceH":15},
"text_black_6_png":{"x":1011,"y":395,"w":11,"h":15,"offX":0,"offY":0,"sourceW":11,"sourceH":15},
"text_black_5_png":{"x":210,"y":402,"w":10,"h":15,"offX":0,"offY":0,"sourceW":10,"sourceH":15},
"text_black_4_png":{"x":748,"y":403,"w":11,"h":15,"offX":0,"offY":0,"sourceW":11,"sourceH":15},
"text_black_3_png":{"x":416,"y":406,"w":10,"h":15,"offX":0,"offY":0,"sourceW":10,"sourceH":15},
"text_black_2_png":{"x":513,"y":402,"w":11,"h":15,"offX":0,"offY":0,"sourceW":11,"sourceH":15},
"text_black_18_png":{"x":676,"y":77,"w":18,"h":15,"offX":0,"offY":0,"sourceW":18,"sourceH":15},
"text_black_17_png":{"x":937,"y":397,"w":18,"h":15,"offX":0,"offY":0,"sourceW":18,"sourceH":15},
"text_black_16_png":{"x":270,"y":397,"w":18,"h":15,"offX":0,"offY":0,"sourceW":18,"sourceH":15},
"text_black_15_png":{"x":142,"y":397,"w":18,"h":15,"offX":0,"offY":0,"sourceW":18,"sourceH":15},
"text_black_14_png":{"x":469,"y":396,"w":18,"h":15,"offX":0,"offY":0,"sourceW":18,"sourceH":15},
"text_black_13_png":{"x":991,"y":395,"w":18,"h":15,"offX":0,"offY":0,"sourceW":18,"sourceH":15},
"text_black_12_png":{"x":533,"y":388,"w":18,"h":15,"offX":0,"offY":0,"sourceW":18,"sourceH":15},
"text_black_11_png":{"x":99,"y":296,"w":18,"h":15,"offX":0,"offY":0,"sourceW":18,"sourceH":15},
"text_black_10_png":{"x":223,"y":224,"w":18,"h":15,"offX":0,"offY":0,"sourceW":18,"sourceH":15},
"text_black_1_png":{"x":428,"y":406,"w":10,"h":15,"offX":0,"offY":0,"sourceW":10,"sourceH":15},
"text_black_0_png":{"x":921,"y":401,"w":11,"h":15,"offX":0,"offY":0,"sourceW":11,"sourceH":15},
"sibo_road_dice_6_png":{"x":0,"y":291,"w":22,"h":22,"offX":0,"offY":0,"sourceW":22,"sourceH":22},
"sibo_road_dice_5_png":{"x":475,"y":328,"w":22,"h":22,"offX":0,"offY":0,"sourceW":22,"sourceH":22},
"sibo_road_dice_4_png":{"x":368,"y":325,"w":22,"h":22,"offX":0,"offY":0,"sourceW":22,"sourceH":22},
"sibo_road_dice_3_png":{"x":813,"y":323,"w":22,"h":22,"offX":0,"offY":0,"sourceW":22,"sourceH":22},
"sibo_road_dice_2_png":{"x":789,"y":321,"w":22,"h":22,"offX":0,"offY":0,"sourceW":22,"sourceH":22},
"sibo_road_dice_1_png":{"x":765,"y":321,"w":22,"h":22,"offX":0,"offY":0,"sourceW":22,"sourceH":22},
"road_triple_zh_TW_png":{"x":295,"y":217,"w":19,"h":21,"offX":3,"offY":2,"sourceW":24,"sourceH":24},
"road_triple_zh_CN_png":{"x":347,"y":246,"w":19,"h":20,"offX":3,"offY":2,"sourceW":24,"sourceH":24},
"road_triple_en_US_png":{"x":726,"y":102,"w":13,"h":17,"offX":6,"offY":3,"sourceW":24,"sourceH":24},
"rou_road_zero_vi_VN_png":{"x":744,"y":76,"w":56,"h":19,"offX":18,"offY":1,"sourceW":90,"sourceH":20},
"rou_road_dozen3_vi_VN_png":{"x":210,"y":176,"w":43,"h":15,"offX":22,"offY":1,"sourceW":90,"sourceH":20},
"rou_road_dozen2_vi_VN_png":{"x":434,"y":176,"w":43,"h":15,"offX":22,"offY":1,"sourceW":90,"sourceH":20},
"rou_road_dozen1_vi_VN_png":{"x":206,"y":193,"w":42,"h":15,"offX":22,"offY":1,"sourceW":90,"sourceH":20},
"rou_road_column3_vi_VN_png":{"x":209,"y":138,"w":47,"h":19,"offX":22,"offY":1,"sourceW":90,"sourceH":20},
"rou_road_column2_vi_VN_png":{"x":0,"y":135,"w":48,"h":19,"offX":22,"offY":1,"sourceW":90,"sourceH":20},
"rou_road_column1_vi_VN_png":{"x":160,"y":138,"w":47,"h":19,"offX":22,"offY":1,"sourceW":90,"sourceH":20},
"rou_road_zero_en_US_png":{"x":0,"y":197,"w":41,"h":15,"offX":24,"offY":2,"sourceW":90,"sourceH":20},
"rou_road_dozen3_en_US_png":{"x":622,"y":60,"w":72,"h":15,"offX":9,"offY":2,"sourceW":90,"sourceH":20},
"rou_road_dozen2_en_US_png":{"x":548,"y":60,"w":72,"h":15,"offX":9,"offY":2,"sourceW":90,"sourceH":20},
"rou_road_dozen1_en_US_png":{"x":0,"y":60,"w":72,"h":15,"offX":9,"offY":2,"sourceW":90,"sourceH":20},
"rou_road_column3_en_US_png":{"x":0,"y":42,"w":82,"h":16,"offX":4,"offY":1,"sourceW":90,"sourceH":20},
"rou_road_column2_en_US_png":{"x":894,"y":40,"w":82,"h":16,"offX":4,"offY":1,"sourceW":90,"sourceH":20},
"rou_road_column1_en_US_png":{"x":810,"y":40,"w":82,"h":16,"offX":4,"offY":1,"sourceW":90,"sourceH":20},
"rou_road_zero_zh_TW_png":{"x":394,"y":242,"w":18,"h":18,"offX":36,"offY":1,"sourceW":90,"sourceH":20},
"rou_road_dozen3_zh_TW_png":{"x":543,"y":95,"w":54,"h":18,"offX":18,"offY":1,"sourceW":90,"sourceH":20},
"rou_road_dozen2_zh_TW_png":{"x":0,"y":95,"w":54,"h":18,"offX":18,"offY":1,"sourceW":90,"sourceH":20},
"rou_road_dozen1_zh_TW_png":{"x":428,"y":94,"w":54,"h":18,"offX":18,"offY":1,"sourceW":90,"sourceH":20},
"rou_road_column3_zh_TW_png":{"x":56,"y":105,"w":53,"h":18,"offX":18,"offY":1,"sourceW":90,"sourceH":20},
"rou_road_column2_zh_TW_png":{"x":956,"y":103,"w":53,"h":18,"offX":18,"offY":1,"sourceW":90,"sourceH":20},
"rou_road_column1_zh_TW_png":{"x":428,"y":114,"w":53,"h":18,"offX":18,"offY":1,"sourceW":90,"sourceH":20},
"rou_road_zero_th_TH_png":{"x":0,"y":156,"w":38,"h":19,"offX":27,"offY":1,"sourceW":90,"sourceH":20},
"rou_road_dozen3_th_TH_png":{"x":465,"y":158,"w":49,"h":16,"offX":20,"offY":1,"sourceW":90,"sourceH":20},
"rou_road_dozen2_th_TH_png":{"x":159,"y":159,"w":49,"h":16,"offX":20,"offY":1,"sourceW":90,"sourceH":20},
"rou_road_dozen1_th_TH_png":{"x":779,"y":158,"w":49,"h":16,"offX":20,"offY":1,"sourceW":90,"sourceH":20},
"rou_road_column3_th_TH_png":{"x":727,"y":161,"w":46,"h":15,"offX":22,"offY":2,"sourceW":90,"sourceH":20},
"rou_road_column2_th_TH_png":{"x":352,"y":160,"w":46,"h":15,"offX":22,"offY":2,"sourceW":90,"sourceH":20},
"rou_road_column1_th_TH_png":{"x":210,"y":159,"w":46,"h":15,"offX":22,"offY":2,"sourceW":90,"sourceH":20},
"road_zero_zh_TW_png":{"x":46,"y":345,"w":21,"h":21,"offX":2,"offY":2,"sourceW":24,"sourceH":24},
"road_zero_zh_CN_png":{"x":23,"y":345,"w":21,"h":21,"offX":2,"offY":2,"sourceW":24,"sourceH":24},
"road_zero_en_US_png":{"x":813,"y":176,"w":12,"h":17,"offX":6,"offY":3,"sourceW":24,"sourceH":24},
"road_small_zh_TW_png":{"x":368,"y":220,"w":21,"h":20,"offX":2,"offY":2,"sourceW":24,"sourceH":24},
"road_small_zh_CN_png":{"x":468,"y":352,"w":21,"h":20,"offX":2,"offY":2,"sourceW":24,"sourceH":24},
"road_small_en_US_png":{"x":1011,"y":103,"w":11,"h":17,"offX":7,"offY":3,"sourceW":24,"sourceH":24},
"road_red_zh_TW_png":{"x":981,"y":344,"w":21,"h":21,"offX":2,"offY":1,"sourceW":24,"sourceH":24},
"road_red_zh_CN_png":{"x":72,"y":344,"w":21,"h":21,"offX":2,"offY":1,"sourceW":24,"sourceH":24},
"road_red_en_US_png":{"x":313,"y":108,"w":13,"h":17,"offX":7,"offY":3,"sourceW":24,"sourceH":24},
"road_red_ball_png":{"x":955,"y":359,"w":20,"h":20,"offX":2,"offY":2,"sourceW":24,"sourceH":24},
"road_odd_zh_TW_png":{"x":445,"y":341,"w":21,"h":21,"offX":2,"offY":2,"sourceW":24,"sourceH":24},
"road_odd_zh_CN_png":{"x":195,"y":339,"w":21,"h":21,"offX":2,"offY":2,"sourceW":24,"sourceH":24},
"road_odd_en_US_png":{"x":1004,"y":344,"w":17,"h":17,"offX":4,"offY":3,"sourceW":24,"sourceH":24},
"road_green_ball_png":{"x":243,"y":357,"w":20,"h":20,"offX":2,"offY":2,"sourceW":24,"sourceH":24},
"road_even_zh_TW_png":{"x":0,"y":339,"w":21,"h":21,"offX":2,"offY":1,"sourceW":24,"sourceH":24},
"road_even_zh_CN_png":{"x":875,"y":274,"w":21,"h":20,"offX":2,"offY":3,"sourceW":24,"sourceH":24},
"road_even_en_US_png":{"x":419,"y":216,"w":10,"h":17,"offX":8,"offY":3,"sourceW":24,"sourceH":24},
"road_bule_ball_png":{"x":95,"y":357,"w":20,"h":20,"offX":2,"offY":2,"sourceW":24,"sourceH":24},
"road_black_zh_TW_png":{"x":392,"y":338,"w":21,"h":21,"offX":2,"offY":2,"sourceW":24,"sourceH":24},
"road_black_zh_CN_png":{"x":499,"y":345,"w":21,"h":21,"offX":2,"offY":2,"sourceW":24,"sourceH":24},
"road_black_en_US_png":{"x":1009,"y":187,"w":12,"h":17,"offX":7,"offY":3,"sourceW":24,"sourceH":24},
"road_big_zh_TW_png":{"x":295,"y":345,"w":21,"h":21,"offX":2,"offY":2,"sourceW":24,"sourceH":24},
"road_big_zh_CN_png":{"x":272,"y":345,"w":21,"h":21,"offX":2,"offY":2,"sourceW":24,"sourceH":24},
"road_big_en_US_png":{"x":407,"y":136,"w":12,"h":17,"offX":7,"offY":3,"sourceW":24,"sourceH":24},
"rou_road_9_png":{"x":696,"y":216,"w":24,"h":24,"offX":0,"offY":0,"sourceW":24,"sourceH":24},
"rou_road_8_png":{"x":486,"y":216,"w":24,"h":24,"offX":0,"offY":0,"sourceW":24,"sourceH":24},
"rou_road_7_png":{"x":460,"y":216,"w":24,"h":24,"offX":0,"offY":0,"sourceW":24,"sourceH":24},
"rou_road_6_png":{"x":393,"y":216,"w":24,"h":24,"offX":0,"offY":0,"sourceW":24,"sourceH":24},
"rou_road_5_png":{"x":316,"y":216,"w":24,"h":24,"offX":0,"offY":0,"sourceW":24,"sourceH":24},
"rou_road_4_png":{"x":145,"y":216,"w":24,"h":24,"offX":0,"offY":0,"sourceW":24,"sourceH":24},
"rou_road_36_png":{"x":119,"y":216,"w":24,"h":24,"offX":0,"offY":0,"sourceW":24,"sourceH":24},
"rou_road_35_png":{"x":93,"y":216,"w":24,"h":24,"offX":0,"offY":0,"sourceW":24,"sourceH":24},
"rou_road_34_png":{"x":243,"y":215,"w":24,"h":24,"offX":0,"offY":0,"sourceW":24,"sourceH":24},
"rou_road_33_png":{"x":0,"y":214,"w":24,"h":24,"offX":0,"offY":0,"sourceW":24,"sourceH":24},
"rou_road_32_png":{"x":434,"y":210,"w":24,"h":24,"offX":0,"offY":0,"sourceW":24,"sourceH":24},
"rou_road_31_png":{"x":574,"y":209,"w":24,"h":24,"offX":0,"offY":0,"sourceW":24,"sourceH":24},
"rou_road_30_png":{"x":826,"y":246,"w":24,"h":24,"offX":0,"offY":0,"sourceW":24,"sourceH":24},
"rou_road_3_png":{"x":800,"y":246,"w":24,"h":24,"offX":0,"offY":0,"sourceW":24,"sourceH":24},
"rou_road_29_png":{"x":774,"y":246,"w":24,"h":24,"offX":0,"offY":0,"sourceW":24,"sourceH":24},
"rou_road_28_png":{"x":321,"y":246,"w":24,"h":24,"offX":0,"offY":0,"sourceW":24,"sourceH":24},
"rou_road_27_png":{"x":52,"y":246,"w":24,"h":24,"offX":0,"offY":0,"sourceW":24,"sourceH":24},
"rou_road_26_png":{"x":26,"y":246,"w":24,"h":24,"offX":0,"offY":0,"sourceW":24,"sourceH":24},
"rou_road_25_png":{"x":978,"y":245,"w":24,"h":24,"offX":0,"offY":0,"sourceW":24,"sourceH":24},
"rou_road_24_png":{"x":952,"y":245,"w":24,"h":24,"offX":0,"offY":0,"sourceW":24,"sourceH":24},
"rou_road_23_png":{"x":926,"y":245,"w":24,"h":24,"offX":0,"offY":0,"sourceW":24,"sourceH":24},
"rou_road_22_png":{"x":104,"y":242,"w":24,"h":24,"offX":0,"offY":0,"sourceW":24,"sourceH":24},
"rou_road_21_png":{"x":78,"y":242,"w":24,"h":24,"offX":0,"offY":0,"sourceW":24,"sourceH":24},
"rou_road_20_png":{"x":223,"y":241,"w":24,"h":24,"offX":0,"offY":0,"sourceW":24,"sourceH":24},
"rou_road_2_png":{"x":0,"y":240,"w":24,"h":24,"offX":0,"offY":0,"sourceW":24,"sourceH":24},
"rou_road_19_png":{"x":419,"y":236,"w":24,"h":24,"offX":0,"offY":0,"sourceW":24,"sourceH":24},
"rou_road_18_png":{"x":564,"y":235,"w":24,"h":24,"offX":0,"offY":0,"sourceW":24,"sourceH":24},
"rou_road_17_png":{"x":748,"y":225,"w":24,"h":24,"offX":0,"offY":0,"sourceW":24,"sourceH":24},
"rou_road_16_png":{"x":722,"y":225,"w":24,"h":24,"offX":0,"offY":0,"sourceW":24,"sourceH":24},
"rou_road_15_png":{"x":652,"y":225,"w":24,"h":24,"offX":0,"offY":0,"sourceW":24,"sourceH":24},
"rou_road_14_png":{"x":626,"y":225,"w":24,"h":24,"offX":0,"offY":0,"sourceW":24,"sourceH":24},
"rou_road_13_png":{"x":197,"y":224,"w":24,"h":24,"offX":0,"offY":0,"sourceW":24,"sourceH":24},
"rou_road_12_png":{"x":171,"y":224,"w":24,"h":24,"offX":0,"offY":0,"sourceW":24,"sourceH":24},
"rou_road_11_png":{"x":538,"y":223,"w":24,"h":24,"offX":0,"offY":0,"sourceW":24,"sourceH":24},
"rou_road_10_png":{"x":512,"y":223,"w":24,"h":24,"offX":0,"offY":0,"sourceW":24,"sourceH":24},
"rou_road_1_png":{"x":874,"y":220,"w":24,"h":24,"offX":0,"offY":0,"sourceW":24,"sourceH":24},
"rou_road_0_png":{"x":848,"y":220,"w":24,"h":24,"offX":0,"offY":0,"sourceW":24,"sourceH":24},
"rou_road_zero_ko_KR_png":{"x":328,"y":177,"w":36,"h":18,"offX":27,"offY":0,"sourceW":90,"sourceH":20},
"rou_road_dozen3_ko_KR_png":{"x":54,"y":125,"w":51,"h":18,"offX":20,"offY":0,"sourceW":90,"sourceH":20},
"rou_road_dozen2_ko_KR_png":{"x":683,"y":128,"w":51,"h":18,"offX":20,"offY":0,"sourceW":90,"sourceH":20},
"rou_road_dozen1_ko_KR_png":{"x":311,"y":128,"w":51,"h":18,"offX":20,"offY":0,"sourceW":90,"sourceH":20},
"rou_road_column3_ko_KR_png":{"x":119,"y":293,"w":27,"h":18,"offX":31,"offY":0,"sourceW":90,"sourceH":20},
"rou_road_column2_ko_KR_png":{"x":578,"y":295,"w":27,"h":18,"offX":31,"offY":0,"sourceW":90,"sourceH":20},
"rou_road_column1_ko_KR_png":{"x":532,"y":328,"w":26,"h":18,"offX":32,"offY":0,"sourceW":90,"sourceH":20},
"rou_road_zero_ja_JP_png":{"x":616,"y":251,"w":33,"h":17,"offX":28,"offY":0,"sourceW":90,"sourceH":20},
"rou_road_dozen3_ja_JP_png":{"x":724,"y":40,"w":84,"h":18,"offX":3,"offY":0,"sourceW":90,"sourceH":20},
"rou_road_dozen2_ja_JP_png":{"x":636,"y":40,"w":86,"h":18,"offX":2,"offY":0,"sourceW":90,"sourceH":20},
"rou_road_dozen1_ja_JP_png":{"x":548,"y":40,"w":86,"h":18,"offX":2,"offY":0,"sourceW":90,"sourceH":20},
"rou_road_column3_ja_JP_png":{"x":265,"y":90,"w":61,"h":16,"offX":15,"offY":1,"sourceW":90,"sourceH":20},
"rou_road_column2_ja_JP_png":{"x":202,"y":80,"w":61,"h":16,"offX":15,"offY":1,"sourceW":90,"sourceH":20},
"rou_road_column1_ja_JP_png":{"x":540,"y":115,"w":59,"h":16,"offX":15,"offY":1,"sourceW":90,"sourceH":20},
"rou_road_zero_id_ID_png":{"x":76,"y":188,"w":40,"h":16,"offX":25,"offY":1,"sourceW":90,"sourceH":20},
"rou_road_dozen3_id_ID_png":{"x":548,"y":77,"w":62,"h":16,"offX":14,"offY":1,"sourceW":90,"sourceH":20},
"rou_road_dozen2_id_ID_png":{"x":0,"y":77,"w":62,"h":16,"offX":14,"offY":1,"sourceW":90,"sourceH":20},
"rou_road_dozen1_id_ID_png":{"x":612,"y":77,"w":62,"h":16,"offX":14,"offY":1,"sourceW":90,"sourceH":20},
"rou_road_column3_id_ID_png":{"x":886,"y":58,"w":74,"h":16,"offX":8,"offY":1,"sourceW":90,"sourceH":20},
"rou_road_column2_id_ID_png":{"x":810,"y":58,"w":74,"h":16,"offX":8,"offY":1,"sourceW":90,"sourceH":20},
"rou_road_column1_id_ID_png":{"x":363,"y":58,"w":74,"h":16,"offX":8,"offY":1,"sourceW":90,"sourceH":20},
"rou_road_zero_es_ES_png":{"x":434,"y":193,"w":42,"h":15,"offX":25,"offY":2,"sourceW":90,"sourceH":20},
"rou_road_dozen3_es_ES_png":{"x":274,"y":74,"w":76,"h":14,"offX":7,"offY":2,"sourceW":90,"sourceH":20},
"rou_road_dozen2_es_ES_png":{"x":696,"y":60,"w":76,"h":14,"offX":7,"offY":2,"sourceW":90,"sourceH":20},
"rou_road_dozen1_es_ES_png":{"x":900,"y":76,"w":76,"h":13,"offX":7,"offY":3,"sourceW":90,"sourceH":20},
"rou_road_column3_es_ES_png":{"x":274,"y":58,"w":87,"h":14,"offX":1,"offY":2,"sourceW":90,"sourceH":20},
"rou_road_column2_es_ES_png":{"x":274,"y":42,"w":88,"h":14,"offX":1,"offY":2,"sourceW":90,"sourceH":20},
"rou_road_column1_es_ES_png":{"x":364,"y":42,"w":87,"h":14,"offX":1,"offY":2,"sourceW":90,"sourceH":20},
"rou_road_zero_zh_CN_png":{"x":774,"y":225,"w":18,"h":18,"offX":36,"offY":1,"sourceW":90,"sourceH":20},
"rou_road_dozen3_zh_CN_png":{"x":599,"y":95,"w":54,"h":18,"offX":18,"offY":1,"sourceW":90,"sourceH":20},
"rou_road_dozen2_zh_CN_png":{"x":900,"y":91,"w":54,"h":18,"offX":18,"offY":1,"sourceW":90,"sourceH":20},
"rou_road_dozen1_zh_CN_png":{"x":487,"y":80,"w":54,"h":18,"offX":18,"offY":1,"sourceW":90,"sourceH":20},
"rou_road_column3_zh_CN_png":{"x":111,"y":105,"w":53,"h":18,"offX":18,"offY":1,"sourceW":90,"sourceH":20},
"rou_road_column2_zh_CN_png":{"x":884,"y":111,"w":53,"h":18,"offX":18,"offY":1,"sourceW":90,"sourceH":20},
"rou_road_column1_zh_CN_png":{"x":258,"y":108,"w":53,"h":18,"offX":18,"offY":1,"sourceW":90,"sourceH":20},
"road_title_red_zh_TW_png":{"x":484,"y":100,"w":26,"h":38,"offX":0,"offY":0,"sourceW":26,"sourceH":38},
"road_title_red_zh_CN_png":{"x":230,"y":98,"w":26,"h":38,"offX":0,"offY":0,"sourceW":26,"sourceH":38},
"road_title_red_en_US_png":{"x":202,"y":98,"w":26,"h":38,"offX":0,"offY":0,"sourceW":26,"sourceH":38},
"road_title_black_zh_TW_png":{"x":772,"y":97,"w":26,"h":38,"offX":0,"offY":0,"sourceW":26,"sourceH":38},
"road_title_black_zh_CN_png":{"x":744,"y":97,"w":26,"h":38,"offX":0,"offY":0,"sourceW":26,"sourceH":38},
"road_title_black_en_US_png":{"x":655,"y":95,"w":26,"h":38,"offX":0,"offY":0,"sourceW":26,"sourceH":38},
"roadIconRed_zh_TW_png":{"x":513,"y":304,"w":22,"h":22,"offX":0,"offY":0,"sourceW":22,"sourceH":22},
"roadIconRed_zh_CN_png":{"x":489,"y":304,"w":22,"h":22,"offX":0,"offY":0,"sourceW":22,"sourceH":22},
"roadIconRed_en_US_png":{"x":369,"y":301,"w":22,"h":22,"offX":0,"offY":0,"sourceW":22,"sourceH":22},
"roadIconRed0_png":{"x":833,"y":299,"w":22,"h":22,"offX":0,"offY":0,"sourceW":22,"sourceH":22},
"roadIconBlack_zh_TW_png":{"x":809,"y":297,"w":22,"h":22,"offX":0,"offY":0,"sourceW":22,"sourceH":22},
"roadIconBlack_zh_CN_png":{"x":785,"y":297,"w":22,"h":22,"offX":0,"offY":0,"sourceW":22,"sourceH":22},
"roadIconBlack_en_US_png":{"x":761,"y":297,"w":22,"h":22,"offX":0,"offY":0,"sourceW":22,"sourceH":22},
"roadIconBlack0_png":{"x":737,"y":297,"w":22,"h":22,"offX":0,"offY":0,"sourceW":22,"sourceH":22},
"rb_road_win_r_png":{"x":956,"y":190,"w":48,"h":13,"offX":0,"offY":25,"sourceW":48,"sourceH":38},
"rb_road_win_b_png":{"x":906,"y":190,"w":48,"h":13,"offX":0,"offY":25,"sourceW":48,"sourceH":38},
"roadIconT_zh_TW_png":{"x":294,"y":321,"w":22,"h":22,"offX":0,"offY":0,"sourceW":22,"sourceH":22},
"roadIconT_zh_CN_png":{"x":48,"y":321,"w":22,"h":22,"offX":0,"offY":0,"sourceW":22,"sourceH":22},
"roadIconT_en_US_png":{"x":24,"y":321,"w":22,"h":22,"offX":0,"offY":0,"sourceW":22,"sourceH":22},
"roadIconD_zh_TW_png":{"x":977,"y":320,"w":22,"h":22,"offX":0,"offY":0,"sourceW":22,"sourceH":22},
"roadIconD_zh_CN_png":{"x":953,"y":320,"w":22,"h":22,"offX":0,"offY":0,"sourceW":22,"sourceH":22},
"roadIconD_en_US_png":{"x":929,"y":320,"w":22,"h":22,"offX":0,"offY":0,"sourceW":22,"sourceH":22},
"road_color_type_6_png":{"x":905,"y":320,"w":22,"h":22,"offX":1,"offY":1,"sourceW":24,"sourceH":24},
"road_color_type_5_png":{"x":881,"y":320,"w":22,"h":22,"offX":1,"offY":1,"sourceW":24,"sourceH":24},
"road_color_type_4_png":{"x":857,"y":320,"w":22,"h":22,"offX":1,"offY":1,"sourceW":24,"sourceH":24},
"road_color_type_3_png":{"x":72,"y":320,"w":22,"h":22,"offX":1,"offY":1,"sourceW":24,"sourceH":24},
"road_color_type_2_png":{"x":585,"y":319,"w":22,"h":22,"offX":1,"offY":1,"sourceW":24,"sourceH":24},
"road_color_type_1_png":{"x":451,"y":317,"w":22,"h":22,"offX":1,"offY":1,"sourceW":24,"sourceH":24},
"col-road-button2_zh_TW_png":{"x":462,"y":0,"w":40,"h":40,"offX":0,"offY":0,"sourceW":40,"sourceH":40},
"col-road-button2_zh_CN_png":{"x":420,"y":0,"w":40,"h":40,"offX":0,"offY":0,"sourceW":40,"sourceH":40},
"col-road-button2_en_US_png":{"x":378,"y":0,"w":40,"h":40,"offX":0,"offY":0,"sourceW":40,"sourceH":40},
"col-road-button2f_zh_TW_png":{"x":336,"y":0,"w":40,"h":40,"offX":0,"offY":0,"sourceW":40,"sourceH":40},
"col-road-button2f_zh_CN_png":{"x":294,"y":0,"w":40,"h":40,"offX":0,"offY":0,"sourceW":40,"sourceH":40},
"col-road-button2f_en_US_png":{"x":252,"y":0,"w":40,"h":40,"offX":0,"offY":0,"sourceW":40,"sourceH":40},
"col-road-button1_zh_TW_png":{"x":210,"y":0,"w":40,"h":40,"offX":0,"offY":0,"sourceW":40,"sourceH":40},
"col-road-button1_zh_CN_png":{"x":168,"y":0,"w":40,"h":40,"offX":0,"offY":0,"sourceW":40,"sourceH":40},
"col-road-button1_en_US_png":{"x":126,"y":0,"w":40,"h":40,"offX":0,"offY":0,"sourceW":40,"sourceH":40},
"col-road-button1f_zh_TW_png":{"x":84,"y":0,"w":40,"h":40,"offX":0,"offY":0,"sourceW":40,"sourceH":40},
"col-road-button1f_zh_CN_png":{"x":42,"y":0,"w":40,"h":40,"offX":0,"offY":0,"sourceW":40,"sourceH":40},
"col-road-button1f_en_US_png":{"x":0,"y":0,"w":40,"h":40,"offX":0,"offY":0,"sourceW":40,"sourceH":40},
"bull_road_p_nobull_vi_VN_png":{"x":258,"y":148,"w":55,"h":15,"offX":0,"offY":10,"sourceW":56,"sourceH":38},
"bull_road_p_bull_vi_VN_png":{"x":56,"y":368,"w":26,"h":14,"offX":7,"offY":11,"sourceW":56,"sourceH":38},
"bull_road_p_bullbull_vi_VN_png":{"x":578,"y":157,"w":56,"h":14,"offX":0,"offY":11,"sourceW":56,"sourceH":38},
"bull_road_p_5gong_vi_VN_png":{"x":913,"y":385,"w":22,"h":14,"offX":17,"offY":12,"sourceW":56,"sourceH":38},
"bull_road_b_nobull_vi_VN_png":{"x":928,"y":147,"w":55,"h":15,"offX":0,"offY":10,"sourceW":56,"sourceH":38},
"bull_road_b_bull_vi_VN_png":{"x":28,"y":368,"w":26,"h":14,"offX":7,"offY":11,"sourceW":56,"sourceH":38},
"bull_road_b_bullbull_vi_VN_png":{"x":407,"y":158,"w":56,"h":14,"offX":0,"offY":11,"sourceW":56,"sourceH":38},
"bull_road_b_5gong_vi_VN_png":{"x":553,"y":386,"w":22,"h":14,"offX":17,"offY":12,"sourceW":56,"sourceH":38},
"bull_road_p_nobull_en_US_png":{"x":640,"y":148,"w":51,"h":16,"offX":3,"offY":10,"sourceW":56,"sourceH":38},
"bull_road_p_bull_en_US_png":{"x":431,"y":293,"w":32,"h":16,"offX":2,"offY":10,"sourceW":56,"sourceH":38},
"bull_road_p_bullbull_en_US_png":{"x":50,"y":145,"w":54,"h":16,"offX":1,"offY":10,"sourceW":56,"sourceH":38},
"bull_road_p_5gong_en_US_png":{"x":46,"y":384,"w":21,"h":15,"offX":18,"offY":11,"sourceW":56,"sourceH":38},
"bull_road_b_nobull_en_US_png":{"x":525,"y":157,"w":51,"h":16,"offX":3,"offY":10,"sourceW":56,"sourceH":38},
"bull_road_b_bull_en_US_png":{"x":673,"y":293,"w":32,"h":16,"offX":2,"offY":10,"sourceW":56,"sourceH":38},
"bull_road_b_bullbull_en_US_png":{"x":779,"y":140,"w":54,"h":16,"offX":1,"offY":10,"sourceW":56,"sourceH":38},
"bull_road_b_5gong_en_US_png":{"x":23,"y":384,"w":21,"h":15,"offX":18,"offY":11,"sourceW":56,"sourceH":38},
"bull_road_p_nobull_zh_TW_png":{"x":290,"y":172,"w":36,"h":19,"offX":10,"offY":9,"sourceW":56,"sourceH":38},
"bull_road_p_bull_zh_TW_png":{"x":275,"y":243,"w":18,"h":18,"offX":9,"offY":10,"sourceW":56,"sourceH":38},
"bull_road_p_bullbull_zh_TW_png":{"x":168,"y":177,"w":36,"h":18,"offX":10,"offY":10,"sourceW":56,"sourceH":38},
"bull_road_p_5gong_zh_TW_png":{"x":397,"y":294,"w":28,"h":18,"offX":15,"offY":10,"sourceW":56,"sourceH":38},
"bull_road_p3_title_zh_TW_png":{"x":504,"y":40,"w":42,"h":38,"offX":0,"offY":0,"sourceW":42,"sourceH":38},
"bull_road_b_nobull_zh_TW_png":{"x":578,"y":173,"w":36,"h":19,"offX":10,"offY":9,"sourceW":56,"sourceH":38},
"bull_road_b_bull_zh_TW_png":{"x":750,"y":251,"w":18,"h":18,"offX":9,"offY":10,"sourceW":56,"sourceH":38},
"bull_road_b_bullbull_zh_TW_png":{"x":0,"y":177,"w":36,"h":18,"offX":10,"offY":10,"sourceW":56,"sourceH":38},
"bull_road_b_5gong_zh_TW_png":{"x":192,"y":295,"w":28,"h":18,"offX":15,"offY":10,"sourceW":56,"sourceH":38},
"bull_road_p_nobull_th_TH_png":{"x":864,"y":180,"w":40,"h":16,"offX":7,"offY":10,"sourceW":56,"sourceH":38},
"bull_road_p_bull_th_TH_png":{"x":682,"y":387,"w":19,"h":16,"offX":8,"offY":10,"sourceW":56,"sourceH":38},
"bull_road_p_bullbull_th_TH_png":{"x":354,"y":202,"w":37,"h":16,"offX":9,"offY":10,"sourceW":56,"sourceH":38},
"bull_road_p_5gong_th_TH_png":{"x":318,"y":331,"w":31,"h":15,"offX":13,"offY":11,"sourceW":56,"sourceH":38},
"bull_road_b_nobull_th_TH_png":{"x":616,"y":185,"w":40,"h":16,"offX":7,"offY":10,"sourceW":56,"sourceH":38},
"bull_road_b_bull_th_TH_png":{"x":703,"y":387,"w":19,"h":16,"offX":8,"offY":10,"sourceW":56,"sourceH":38},
"bull_road_b_bullbull_th_TH_png":{"x":708,"y":198,"w":37,"h":16,"offX":9,"offY":10,"sourceW":56,"sourceH":38},
"bull_road_b_5gong_th_TH_png":{"x":499,"y":328,"w":31,"h":15,"offX":13,"offY":11,"sourceW":56,"sourceH":38},
"text_red_9_png":{"x":350,"y":404,"w":10,"h":15,"offX":0,"offY":0,"sourceW":10,"sourceH":15},
"text_red_8_png":{"x":338,"y":404,"w":10,"h":15,"offX":0,"offY":0,"sourceW":10,"sourceH":15},
"text_red_7_png":{"x":613,"y":406,"w":10,"h":14,"offX":0,"offY":0,"sourceW":10,"sourceH":14},
"text_red_6_png":{"x":774,"y":403,"w":10,"h":15,"offX":0,"offY":0,"sourceW":10,"sourceH":15},
"text_red_5_png":{"x":625,"y":406,"w":9,"h":15,"offX":0,"offY":0,"sourceW":9,"sourceH":15},
"text_red_4_png":{"x":655,"y":314,"w":12,"h":14,"offX":0,"offY":0,"sourceW":12,"sourceH":14},
"text_red_3_png":{"x":698,"y":405,"w":10,"h":15,"offX":0,"offY":0,"sourceW":10,"sourceH":15},
"text_red_2_png":{"x":601,"y":406,"w":10,"h":14,"offX":0,"offY":0,"sourceW":10,"sourceH":14},
"text_red_1_png":{"x":928,"y":131,"w":9,"h":14,"offX":0,"offY":0,"sourceW":9,"sourceH":14},
"text_red_0_png":{"x":686,"y":405,"w":10,"h":15,"offX":0,"offY":0,"sourceW":10,"sourceH":15},
"text_blue_9_png":{"x":674,"y":405,"w":10,"h":15,"offX":0,"offY":0,"sourceW":10,"sourceH":15},
"text_blue_8_png":{"x":538,"y":405,"w":10,"h":15,"offX":0,"offY":0,"sourceW":10,"sourceH":15},
"text_blue_7_png":{"x":440,"y":406,"w":10,"h":14,"offX":0,"offY":0,"sourceW":10,"sourceH":14},
"text_blue_6_png":{"x":526,"y":405,"w":10,"h":15,"offX":0,"offY":0,"sourceW":10,"sourceH":15},
"text_blue_5_png":{"x":957,"y":397,"w":9,"h":15,"offX":0,"offY":0,"sourceW":9,"sourceH":15},
"text_blue_4_png":{"x":1010,"y":363,"w":12,"h":14,"offX":0,"offY":0,"sourceW":12,"sourceH":14},
"text_blue_3_png":{"x":710,"y":405,"w":10,"h":15,"offX":0,"offY":0,"sourceW":10,"sourceH":15},
"text_blue_2_png":{"x":452,"y":406,"w":10,"h":14,"offX":0,"offY":0,"sourceW":10,"sourceH":14},
"text_blue_1_png":{"x":577,"y":386,"w":9,"h":14,"offX":0,"offY":0,"sourceW":9,"sourceH":14},
"text_blue_0_png":{"x":362,"y":404,"w":10,"h":15,"offX":0,"offY":0,"sourceW":10,"sourceH":15},
"bull_road_p_nobull_ko_KR_png":{"x":118,"y":197,"w":36,"h":17,"offX":10,"offY":10,"sourceW":56,"sourceH":38},
"bull_road_p_bull_ko_KR_png":{"x":837,"y":323,"w":18,"h":17,"offX":9,"offY":10,"sourceW":56,"sourceH":38},
"bull_road_p_bullbull_ko_KR_png":{"x":396,"y":197,"w":36,"h":17,"offX":10,"offY":10,"sourceW":56,"sourceH":38},
"bull_road_p_5gong_ko_KR_png":{"x":243,"y":338,"w":27,"h":17,"offX":15,"offY":10,"sourceW":56,"sourceH":38},
"bull_road_b_nobull_ko_KR_png":{"x":316,"y":197,"w":36,"h":17,"offX":10,"offY":10,"sourceW":56,"sourceH":38},
"bull_road_b_bull_ko_KR_png":{"x":609,"y":319,"w":18,"h":17,"offX":9,"offY":10,"sourceW":56,"sourceH":38},
"bull_road_b_bullbull_ko_KR_png":{"x":156,"y":197,"w":36,"h":17,"offX":10,"offY":10,"sourceW":56,"sourceH":38},
"bull_road_b_5gong_ko_KR_png":{"x":609,"y":338,"w":27,"h":17,"offX":15,"offY":10,"sourceW":56,"sourceH":38},
"bull_road_p_nobull_ja_JP_png":{"x":107,"y":125,"w":51,"h":18,"offX":3,"offY":9,"sourceW":56,"sourceH":38},
"bull_road_p_bull_ja_JP_png":{"x":417,"y":335,"w":26,"h":18,"offX":6,"offY":9,"sourceW":56,"sourceH":38},
"bull_road_p_bullbull_ja_JP_png":{"x":371,"y":116,"w":52,"h":18,"offX":3,"offY":9,"sourceW":56,"sourceH":38},
"bull_road_p_5gong_ja_JP_png":{"x":236,"y":294,"w":28,"h":18,"offX":15,"offY":10,"sourceW":56,"sourceH":38},
"bull_road_b_nobull_ja_JP_png":{"x":258,"y":128,"w":51,"h":18,"offX":3,"offY":9,"sourceW":56,"sourceH":38},
"bull_road_b_bull_ja_JP_png":{"x":96,"y":337,"w":26,"h":18,"offX":6,"offY":9,"sourceW":56,"sourceH":38},
"bull_road_b_bullbull_ja_JP_png":{"x":0,"y":115,"w":52,"h":18,"offX":3,"offY":9,"sourceW":56,"sourceH":38},
"bull_road_b_5gong_ja_JP_png":{"x":266,"y":294,"w":28,"h":18,"offX":15,"offY":10,"sourceW":56,"sourceH":38},
"bull_road_p_nobull_es_ES_png":{"x":835,"y":155,"w":51,"h":16,"offX":3,"offY":10,"sourceW":56,"sourceH":38},
"bull_road_p_bull_es_ES_png":{"x":397,"y":276,"w":32,"h":16,"offX":2,"offY":10,"sourceW":56,"sourceH":38},
"bull_road_p_bullbull_es_ES_png":{"x":584,"y":139,"w":54,"h":16,"offX":1,"offY":10,"sourceW":56,"sourceH":38},
"bull_road_p_5gong_es_ES_png":{"x":0,"y":384,"w":21,"h":15,"offX":18,"offY":11,"sourceW":56,"sourceH":38},
"bull_road_b_nobull_es_ES_png":{"x":106,"y":145,"w":51,"h":16,"offX":3,"offY":10,"sourceW":56,"sourceH":38},
"bull_road_b_bull_es_ES_png":{"x":639,"y":276,"w":32,"h":16,"offX":2,"offY":10,"sourceW":56,"sourceH":38},
"bull_road_b_bullbull_es_ES_png":{"x":469,"y":140,"w":54,"h":16,"offX":1,"offY":10,"sourceW":56,"sourceH":38},
"bull_road_b_5gong_es_ES_png":{"x":588,"y":385,"w":21,"h":15,"offX":18,"offY":11,"sourceW":56,"sourceH":38},
"bull_road_p_nobull_zh_CN_png":{"x":775,"y":176,"w":36,"h":18,"offX":10,"offY":10,"sourceW":56,"sourceH":38},
"bull_road_p_bull_zh_CN_png":{"x":325,"y":272,"w":18,"h":18,"offX":9,"offY":10,"sourceW":56,"sourceH":38},
"bull_road_p_bullbull_zh_CN_png":{"x":712,"y":178,"w":36,"h":18,"offX":10,"offY":10,"sourceW":56,"sourceH":38},
"bull_road_p_5gong_zh_CN_png":{"x":707,"y":293,"w":28,"h":18,"offX":15,"offY":10,"sourceW":56,"sourceH":38},
"bull_road_b_nobull_zh_CN_png":{"x":130,"y":177,"w":36,"h":18,"offX":10,"offY":10,"sourceW":56,"sourceH":38},
"bull_road_b_bull_zh_CN_png":{"x":1004,"y":245,"w":18,"h":18,"offX":9,"offY":10,"sourceW":56,"sourceH":38},
"bull_road_b_bullbull_zh_CN_png":{"x":38,"y":177,"w":36,"h":18,"offX":10,"offY":10,"sourceW":56,"sourceH":38},
"bull_road_b_5gong_zh_CN_png":{"x":639,"y":294,"w":28,"h":18,"offX":15,"offY":10,"sourceW":56,"sourceH":38},
"bull_road_win_png":{"x":40,"y":163,"w":56,"h":12,"offX":0,"offY":0,"sourceW":56,"sourceH":12},
"bull_road_p3_title_zh_CN_png":{"x":944,"y":0,"w":42,"h":38,"offX":0,"offY":0,"sourceW":42,"sourceH":38},
"bull_road_p3_title_en_US_png":{"x":900,"y":0,"w":42,"h":38,"offX":0,"offY":0,"sourceW":42,"sourceH":38},
"bull_road_p2_title_zh_TW_png":{"x":856,"y":0,"w":42,"h":38,"offX":0,"offY":0,"sourceW":42,"sourceH":38},
"bull_road_p2_title_zh_CN_png":{"x":812,"y":0,"w":42,"h":38,"offX":0,"offY":0,"sourceW":42,"sourceH":38},
"bull_road_p2_title_en_US_png":{"x":768,"y":0,"w":42,"h":38,"offX":0,"offY":0,"sourceW":42,"sourceH":38},
"bull_road_p1_title_zh_TW_png":{"x":724,"y":0,"w":42,"h":38,"offX":0,"offY":0,"sourceW":42,"sourceH":38},
"bull_road_p1_title_zh_CN_png":{"x":680,"y":0,"w":42,"h":38,"offX":0,"offY":0,"sourceW":42,"sourceH":38},
"bull_road_p1_title_en_US_png":{"x":636,"y":0,"w":42,"h":38,"offX":0,"offY":0,"sourceW":42,"sourceH":38},
"bull_road_b_title_zh_TW_png":{"x":592,"y":0,"w":42,"h":38,"offX":0,"offY":0,"sourceW":42,"sourceH":38},
"bull_road_b_title_zh_CN_png":{"x":548,"y":0,"w":42,"h":38,"offX":0,"offY":0,"sourceW":42,"sourceH":38},
"bull_road_b_title_en_US_png":{"x":504,"y":0,"w":42,"h":38,"offX":0,"offY":0,"sourceW":42,"sourceH":38},
"roadIconT3_zh_TW_png":{"x":935,"y":219,"w":24,"h":24,"offX":0,"offY":0,"sourceW":24,"sourceH":24},
"roadIconT3_zh_CN_png":{"x":909,"y":219,"w":24,"h":24,"offX":0,"offY":0,"sourceW":24,"sourceH":24},
"roadIconT3_en_US_png":{"x":600,"y":218,"w":24,"h":24,"offX":0,"offY":0,"sourceW":24,"sourceH":24},
"roadIconT2_zh_TW_png":{"x":372,"y":276,"w":23,"h":23,"offX":0,"offY":0,"sourceW":23,"sourceH":23},
"roadIconT2_zh_CN_png":{"x":850,"y":274,"w":23,"h":23,"offX":0,"offY":0,"sourceW":23,"sourceH":23},
"roadIconT2_en_US_png":{"x":825,"y":272,"w":23,"h":23,"offX":0,"offY":0,"sourceW":23,"sourceH":23},
"roadIconT1_zh_TW_png":{"x":800,"y":272,"w":23,"h":23,"offX":0,"offY":0,"sourceW":23,"sourceH":23},
"roadIconT1_zh_CN_png":{"x":775,"y":272,"w":23,"h":23,"offX":0,"offY":0,"sourceW":23,"sourceH":23},
"roadIconT1_en_US_png":{"x":750,"y":272,"w":23,"h":23,"offX":0,"offY":0,"sourceW":23,"sourceH":23},
"roadIconT0_zh_TW_png":{"x":222,"y":314,"w":22,"h":22,"offX":0,"offY":0,"sourceW":22,"sourceH":22},
"roadIconT0_zh_CN_png":{"x":693,"y":313,"w":22,"h":22,"offX":0,"offY":0,"sourceW":22,"sourceH":22},
"roadIconT0_en_US_png":{"x":123,"y":313,"w":22,"h":22,"offX":0,"offY":0,"sourceW":22,"sourceH":22},
"roadIconSmallSC2_png":{"x":99,"y":313,"w":22,"h":22,"offX":0,"offY":0,"sourceW":22,"sourceH":22},
"roadIconSmallSC1_png":{"x":669,"y":311,"w":22,"h":22,"offX":0,"offY":0,"sourceW":22,"sourceH":22},
"roadIconSmallL3_png":{"x":1016,"y":42,"w":6,"h":6,"offX":0,"offY":0,"sourceW":6,"sourceH":6},
"roadIconSmallL2_png":{"x":439,"y":58,"w":6,"h":6,"offX":0,"offY":0,"sourceW":6,"sourceH":6},
"roadIconSmallL1_png":{"x":1016,"y":50,"w":6,"h":6,"offX":0,"offY":0,"sourceW":6,"sourceH":6},
"roadIconSmallHC2_png":{"x":427,"y":311,"w":22,"h":22,"offX":0,"offY":0,"sourceW":22,"sourceH":22},
"roadIconSmallHC1_png":{"x":537,"y":304,"w":22,"h":22,"offX":0,"offY":0,"sourceW":22,"sourceH":22},
"roadIconPCT_png":{"x":741,"y":321,"w":22,"h":22,"offX":0,"offY":0,"sourceW":22,"sourceH":22},
"roadIconPC3_png":{"x":269,"y":217,"w":24,"h":24,"offX":0,"offY":0,"sourceW":24,"sourceH":24},
"roadIconPC2_png":{"x":50,"y":272,"w":23,"h":23,"offX":0,"offY":0,"sourceW":23,"sourceH":23},
"roadIconPC1_png":{"x":25,"y":272,"w":23,"h":23,"offX":0,"offY":0,"sourceW":23,"sourceH":23},
"roadIconPC0_png":{"x":172,"y":315,"w":22,"h":22,"offX":0,"offY":0,"sourceW":22,"sourceH":22},
"roadIconP3_zh_TW_png":{"x":822,"y":220,"w":24,"h":24,"offX":0,"offY":0,"sourceW":24,"sourceH":24},
"roadIconP3_zh_CN_png":{"x":796,"y":220,"w":24,"h":24,"offX":0,"offY":0,"sourceW":24,"sourceH":24},
"roadIconP3_en_US_png":{"x":342,"y":220,"w":24,"h":24,"offX":0,"offY":0,"sourceW":24,"sourceH":24},
"roadIconP2_zh_TW_png":{"x":923,"y":271,"w":23,"h":23,"offX":0,"offY":0,"sourceW":23,"sourceH":23},
"roadIconP2_zh_CN_png":{"x":898,"y":271,"w":23,"h":23,"offX":0,"offY":0,"sourceW":23,"sourceH":23},
"roadIconP2_en_US_png":{"x":614,"y":270,"w":23,"h":23,"offX":0,"offY":0,"sourceW":23,"sourceH":23},
"roadIconP1_zh_TW_png":{"x":589,"y":270,"w":23,"h":23,"offX":0,"offY":0,"sourceW":23,"sourceH":23},
"roadIconP1_zh_CN_png":{"x":248,"y":269,"w":23,"h":23,"offX":0,"offY":0,"sourceW":23,"sourceH":23},
"roadIconP1_en_US_png":{"x":676,"y":268,"w":23,"h":23,"offX":0,"offY":0,"sourceW":23,"sourceH":23},
"roadIconP0_zh_TW_png":{"x":631,"y":314,"w":22,"h":22,"offX":0,"offY":0,"sourceW":22,"sourceH":22},
"roadIconP0_zh_CN_png":{"x":393,"y":314,"w":22,"h":22,"offX":0,"offY":0,"sourceW":22,"sourceH":22},
"roadIconP0_en_US_png":{"x":270,"y":314,"w":22,"h":22,"offX":0,"offY":0,"sourceW":22,"sourceH":22},
"roadIconL3_png":{"x":465,"y":268,"w":23,"h":23,"offX":0,"offY":0,"sourceW":23,"sourceH":23},
"roadIconL2_png":{"x":440,"y":268,"w":23,"h":23,"offX":0,"offY":0,"sourceW":23,"sourceH":23},
"roadIconL1_png":{"x":347,"y":268,"w":23,"h":23,"offX":0,"offY":0,"sourceW":23,"sourceH":23},
"roadIconBCT_png":{"x":196,"y":315,"w":22,"h":22,"offX":0,"offY":0,"sourceW":22,"sourceH":22},
"roadIconBC3_png":{"x":52,"y":220,"w":24,"h":24,"offX":0,"offY":0,"sourceW":24,"sourceH":24},
"roadIconBC2_png":{"x":123,"y":268,"w":23,"h":23,"offX":0,"offY":0,"sourceW":23,"sourceH":23},
"roadIconBC1_png":{"x":0,"y":266,"w":23,"h":23,"offX":0,"offY":0,"sourceW":23,"sourceH":23},
"roadIconBC0_png":{"x":561,"y":315,"w":22,"h":22,"offX":0,"offY":0,"sourceW":22,"sourceH":22},
"roadIconB3_zh_TW_png":{"x":26,"y":220,"w":24,"h":24,"offX":0,"offY":0,"sourceW":24,"sourceH":24},
"roadIconB3_zh_CN_png":{"x":987,"y":219,"w":24,"h":24,"offX":0,"offY":0,"sourceW":24,"sourceH":24},
"roadIconB3_en_US_png":{"x":961,"y":219,"w":24,"h":24,"offX":0,"offY":0,"sourceW":24,"sourceH":24},
"roadIconB2_zh_TW_png":{"x":973,"y":271,"w":23,"h":23,"offX":0,"offY":0,"sourceW":23,"sourceH":23},
"roadIconB2_zh_CN_png":{"x":948,"y":271,"w":23,"h":23,"offX":0,"offY":0,"sourceW":23,"sourceH":23},
"roadIconB2_en_US_png":{"x":275,"y":268,"w":23,"h":23,"offX":0,"offY":0,"sourceW":23,"sourceH":23},
"roadIconB1_zh_TW_png":{"x":651,"y":251,"w":23,"h":23,"offX":0,"offY":0,"sourceW":23,"sourceH":23},
"roadIconB1_zh_CN_png":{"x":300,"y":272,"w":23,"h":23,"offX":0,"offY":0,"sourceW":23,"sourceH":23},
"roadIconB1_en_US_png":{"x":998,"y":271,"w":23,"h":23,"offX":0,"offY":0,"sourceW":23,"sourceH":23},
"roadIconB0_zh_TW_png":{"x":0,"y":315,"w":22,"h":22,"offX":0,"offY":0,"sourceW":22,"sourceH":22},
"roadIconB0_zh_CN_png":{"x":246,"y":314,"w":22,"h":22,"offX":0,"offY":0,"sourceW":22,"sourceH":22},
"roadIconB0_en_US_png":{"x":717,"y":321,"w":22,"h":22,"offX":0,"offY":0,"sourceW":22,"sourceH":22}}}