info face="Noto Sans S Chinese Medium" size=-28 bold=0 italic=0 charset="" unicode=1 stretchH=100 smooth=1 aa=1 padding=4,4,4,4 spacing=1,1 outline=0
common lineHeight=40 base=31 scaleW=256 scaleH=256 pages=1 packed=0 alphaChnl=1 redChnl=0 greenChnl=0 blueChnl=0
page id=0 file="num_lose.png"
chars count=13
char id=43   x=228   y=0     width=22    height=23    xoffset=-3    yoffset=10    xadvance=16    page=0  chnl=15
char id=45   x=14    y=30    width=16    height=11    xoffset=-2    yoffset=18    xadvance=10    page=0  chnl=15
char id=46   x=0     y=30    width=13    height=13    xoffset=-2    yoffset=22    xadvance=8     page=0  chnl=15
char id=48   x=24    y=0     width=22    height=29    xoffset=-3    yoffset=6     xadvance=16    page=0  chnl=15
char id=49   x=207   y=0     width=20    height=29    xoffset=-2    yoffset=6     xadvance=16    page=0  chnl=15
char id=50   x=47    y=0     width=22    height=29    xoffset=-4    yoffset=6     xadvance=16    page=0  chnl=15
char id=51   x=70    y=0     width=22    height=29    xoffset=-4    yoffset=6     xadvance=16    page=0  chnl=15
char id=52   x=0     y=0     width=23    height=29    xoffset=-4    yoffset=6     xadvance=16    page=0  chnl=15
char id=53   x=93    y=0     width=22    height=29    xoffset=-4    yoffset=6     xadvance=16    page=0  chnl=15
char id=54   x=116   y=0     width=22    height=29    xoffset=-3    yoffset=6     xadvance=16    page=0  chnl=15
char id=55   x=139   y=0     width=22    height=29    xoffset=-2    yoffset=6     xadvance=16    page=0  chnl=15
char id=56   x=162   y=0     width=22    height=29    xoffset=-3    yoffset=6     xadvance=16    page=0  chnl=15
char id=57   x=185   y=0     width=21    height=29    xoffset=-3    yoffset=6     xadvance=16    page=0  chnl=15
