info face="DigifaceWide" size=-28 bold=0 italic=0 charset="" unicode=1 stretchH=100 smooth=1 aa=1 padding=4,4,4,4 spacing=1,1 outline=0
common lineHeight=34 base=28 scaleW=256 scaleH=256 pages=1 packed=0 alphaChnl=1 redChnl=0 greenChnl=0 blueChnl=0
page id=0 file="daojishi_car.png"
chars count=10
char id=48   x=0     y=0     width=27    height=28    xoffset=-3    yoffset=4     xadvance=21    page=0  chnl=15
char id=49   x=0     y=29    width=13    height=28    xoffset=3     yoffset=4     xadvance=21    page=0  chnl=15
char id=50   x=28    y=0     width=27    height=28    xoffset=-3    yoffset=4     xadvance=21    page=0  chnl=15
char id=51   x=224   y=0     width=26    height=28    xoffset=-4    yoffset=4     xadvance=21    page=0  chnl=15
char id=52   x=56    y=0     width=27    height=28    xoffset=-3    yoffset=4     xadvance=21    page=0  chnl=15
char id=53   x=84    y=0     width=27    height=28    xoffset=-3    yoffset=4     xadvance=21    page=0  chnl=15
char id=54   x=112   y=0     width=27    height=28    xoffset=-3    yoffset=4     xadvance=21    page=0  chnl=15
char id=55   x=140   y=0     width=27    height=28    xoffset=-5    yoffset=4     xadvance=21    page=0  chnl=15
char id=56   x=168   y=0     width=27    height=28    xoffset=-3    yoffset=4     xadvance=21    page=0  chnl=15
char id=57   x=196   y=0     width=27    height=28    xoffset=-3    yoffset=4     xadvance=21    page=0  chnl=15
