info face="caijinjiangchi" size=44 bold=0 italic=0 charset="" unicode=0 stretchH=100 smooth=1 aa=1 padding=0,0,0,0 spacing=1,1
common lineHeight=44 base=26 scaleW=128 scaleH=256 pages=1 packed=0 alphaChnl=1 redChnl=0 greenChnl=0 blueChnl=0
page id=0 file="caijinjiangchi.png"
chars count=14
char id=48 x=0 y=0 width=36 height=42 xoffset=0 yoffset=2 xadvance=32 page=0 chnl=0 letter="0"
char id=49 x=37 y=0 width=22 height=42 xoffset=0 yoffset=1 xadvance=18 page=0 chnl=0 letter="1"
char id=50 x=0 y=175 width=33 height=42 xoffset=0 yoffset=2 xadvance=29 page=0 chnl=0 letter="2"
char id=51 x=35 y=43 width=31 height=42 xoffset=0 yoffset=2 xadvance=27 page=0 chnl=0 letter="3"
char id=52 x=0 y=43 width=34 height=43 xoffset=0 yoffset=1 xadvance=30 page=0 chnl=0 letter="4"
char id=53 x=34 y=131 width=31 height=42 xoffset=0 yoffset=2 xadvance=27 page=0 chnl=0 letter="5"
char id=54 x=0 y=131 width=33 height=43 xoffset=0 yoffset=1 xadvance=29 page=0 chnl=0 letter="6"
char id=55 x=35 y=86 width=30 height=42 xoffset=0 yoffset=2 xadvance=26 page=0 chnl=0 letter="7"
char id=56 x=34 y=174 width=31 height=43 xoffset=0 yoffset=1 xadvance=27 page=0 chnl=0 letter="8"
char id=57 x=0 y=87 width=34 height=43 xoffset=0 yoffset=1 xadvance=30 page=0 chnl=0 letter="9"
char id=46 x=22 y=218 width=20 height=24 xoffset=0 yoffset=20 xadvance=16 page=0 chnl=0 letter="."
char id=44 x=0 y=218 width=21 height=28 xoffset=0 yoffset=22 xadvance=17 page=0 chnl=0 letter=","
char id=32 x=0 y=0 width=0 height=0 xoffset=0 yoffset=0 xadvance=20 page=0 chnl=0 letter=" "
char id=9 x=0 y=0 width=0 height=0 xoffset=0 yoffset=0 xadvance=160 page=0 chnl=0 letter="	"

kernings count=0
