info face="dssz" size=24 bold=0 italic=0 charset="" unicode=0 stretchH=100 smooth=1 aa=1 padding=0,0,0,0 spacing=1,1
common lineHeight=22 base=26 scaleW=128 scaleH=64 pages=1 packed=0 alphaChnl=1 redChnl=0 greenChnl=0 blueChnl=0
page id=0 file="dssz.png"
chars count=15
char id=49 x=68 y=0 width=13 height=21 xoffset=0 yoffset=0 xadvance=10 page=0 chnl=0 letter="1"
char id=50 x=83 y=23 width=15 height=21 xoffset=0 yoffset=0 xadvance=12 page=0 chnl=0 letter="2"
char id=51 x=83 y=0 width=15 height=22 xoffset=0 yoffset=0 xadvance=12 page=0 chnl=0 letter="3"
char id=52 x=18 y=23 width=16 height=21 xoffset=0 yoffset=0 xadvance=13 page=0 chnl=0 letter="4"
char id=53 x=67 y=22 width=15 height=22 xoffset=0 yoffset=0 xadvance=12 page=0 chnl=0 letter="5"
char id=54 x=19 y=0 width=16 height=22 xoffset=0 yoffset=0 xadvance=13 page=0 chnl=0 letter="6"
char id=55 x=52 y=0 width=15 height=21 xoffset=0 yoffset=0 xadvance=12 page=0 chnl=0 letter="7"
char id=56 x=36 y=0 width=15 height=22 xoffset=0 yoffset=0 xadvance=12 page=0 chnl=0 letter="8"
char id=57 x=35 y=23 width=15 height=22 xoffset=0 yoffset=0 xadvance=12 page=0 chnl=0 letter="9"
char id=48 x=51 y=23 width=15 height=22 xoffset=0 yoffset=0 xadvance=12 page=0 chnl=0 letter="0"
char id=46 x=0 y=46 width=8 height=11 xoffset=0 yoffset=11 xadvance=5 page=0 chnl=0 letter="."
char id=78 x=0 y=23 width=17 height=21 xoffset=0 yoffset=0 xadvance=14 page=0 chnl=0 letter="N"
char id=79 x=0 y=0 width=18 height=22 xoffset=0 yoffset=0 xadvance=15 page=0 chnl=0 letter="O"
char id=32 x=0 y=0 width=0 height=0 xoffset=0 yoffset=0 xadvance=10 page=0 chnl=0 letter=" "
char id=9 x=0 y=0 width=0 height=0 xoffset=0 yoffset=0 xadvance=80 page=0 chnl=0 letter="	"

kernings count=0
