info face="hbsz1" size=56 bold=0 italic=0 charset="" unicode=0 stretchH=100 smooth=1 aa=1 padding=0,0,0,0 spacing=1,1
common lineHeight=56 base=26 scaleW=128 scaleH=256 pages=1 packed=0 alphaChnl=1 redChnl=0 greenChnl=0 blueChnl=0
page id=0 file="hbsz1.png"
chars count=17
char id=48 x=0 y=53 width=38 height=54 xoffset=0 yoffset=2 xadvance=40 page=0 chnl=0 letter="0"
char id=49 x=76 y=0 width=23 height=53 xoffset=0 yoffset=2 xadvance=25 page=0 chnl=0 letter="1"
char id=50 x=39 y=108 width=35 height=53 xoffset=0 yoffset=2 xadvance=37 page=0 chnl=0 letter="2"
char id=51 x=75 y=162 width=33 height=54 xoffset=0 yoffset=2 xadvance=35 page=0 chnl=0 letter="3"
char id=52 x=0 y=0 width=41 height=52 xoffset=0 yoffset=3 xadvance=43 page=0 chnl=0 letter="4"
char id=53 x=75 y=108 width=33 height=53 xoffset=0 yoffset=3 xadvance=35 page=0 chnl=0 letter="5"
char id=54 x=39 y=53 width=36 height=54 xoffset=0 yoffset=2 xadvance=38 page=0 chnl=0 letter="6"
char id=55 x=0 y=163 width=37 height=52 xoffset=0 yoffset=3 xadvance=39 page=0 chnl=0 letter="7"
char id=56 x=0 y=108 width=38 height=54 xoffset=0 yoffset=2 xadvance=40 page=0 chnl=0 letter="8"
char id=57 x=38 y=163 width=36 height=54 xoffset=0 yoffset=2 xadvance=38 page=0 chnl=0 letter="9"
char id=46 x=57 y=28 width=13 height=12 xoffset=0 yoffset=44 xadvance=15 page=0 chnl=0 letter="."
char id=44 x=42 y=28 width=14 height=18 xoffset=0 yoffset=46 xadvance=16 page=0 chnl=0 letter=","
char id=20803 x=0 y=216 width=29 height=27 xoffset=0 yoffset=28 xadvance=31 page=0 chnl=0 letter="元"
char id=19975 x=42 y=0 width=28 height=27 xoffset=0 yoffset=28 xadvance=30 page=0 chnl=0 letter="万"
char id=20159 x=30 y=218 width=29 height=29 xoffset=0 yoffset=26 xadvance=31 page=0 chnl=0 letter="亿"
char id=32 x=0 y=0 width=0 height=0 xoffset=0 yoffset=0 xadvance=20 page=0 chnl=0 letter=" "
char id=9 x=0 y=0 width=0 height=0 xoffset=0 yoffset=0 xadvance=160 page=0 chnl=0 letter="	"

kernings count=0
