info face="Arial" size=32 bold=0 italic=0 charset="" unicode=1 stretchH=100 smooth=1 aa=1 padding=0,0,0,0 spacing=1,1 outline=0
common lineHeight=32 base=26 scaleW=500 scaleH=500 pages=1 packed=0 alphaChnl=0 redChnl=0 greenChnl=0 blueChnl=0
page id=0 file="Num_bigwin-export.png"
chars count=12
char id=44   x=0     y=294   width=54    height=146   xoffset=0     yoffset=0     xadvance=54    page=0  chnl=15
char id=46   x=55    y=294   width=39    height=146   xoffset=0     yoffset=0     xadvance=39    page=0  chnl=15
char id=48   x=102   y=147   width=100   height=146   xoffset=0     yoffset=0     xadvance=100   page=0  chnl=15
char id=49   x=418   y=0     width=71    height=146   xoffset=0     yoffset=0     xadvance=71    page=0  chnl=15
char id=50   x=0     y=147   width=101   height=146   xoffset=0     yoffset=0     xadvance=101   page=0  chnl=15
char id=51   x=304   y=147   width=99    height=146   xoffset=0     yoffset=0     xadvance=99    page=0  chnl=15
char id=52   x=0     y=0     width=107   height=146   xoffset=0     yoffset=0     xadvance=107   page=0  chnl=15
char id=53   x=203   y=147   width=100   height=146   xoffset=0     yoffset=0     xadvance=100   page=0  chnl=15
char id=54   x=212   y=0     width=102   height=146   xoffset=0     yoffset=0     xadvance=102   page=0  chnl=15
char id=55   x=404   y=147   width=94    height=146   xoffset=0     yoffset=0     xadvance=94    page=0  chnl=15
char id=56   x=108   y=0     width=103   height=146   xoffset=0     yoffset=0     xadvance=103   page=0  chnl=15
char id=57   x=315   y=0     width=102   height=146   xoffset=0     yoffset=0     xadvance=102   page=0  chnl=15
