﻿info face="黑体" size=32 bold=0 italic=0 charset="" unicode=1 stretchH=100 smooth=1 aa=1 padding=0,0,0,0 spacing=1,1 outline=0
common lineHeight=33 base=28 scaleW=256 scaleH=100 pages=1 packed=0 alphaChnl=1 redChnl=0 greenChnl=0 blueChnl=0
page id=0 file="wuniu_txz2.png"
chars count=16
char id=43   x=78    y=0     width=29    height=42    xoffset=0     yoffset=0     xadvance=29    page=0  chnl=15
char id=44   x=176   y=43    width=12    height=42    xoffset=0     yoffset=0     xadvance=12    page=0  chnl=15
char id=45   x=108   y=0     width=29    height=42    xoffset=0     yoffset=0     xadvance=29    page=0  chnl=15
char id=46   x=162   y=43    width=13    height=42    xoffset=0     yoffset=0     xadvance=13    page=0  chnl=15
char id=48   x=197   y=0     width=27    height=42    xoffset=0     yoffset=0     xadvance=27    page=0  chnl=15
char id=49   x=140   y=43    width=21    height=42    xoffset=0     yoffset=0     xadvance=21    page=0  chnl=15
char id=50   x=225   y=0     width=27    height=42    xoffset=0     yoffset=0     xadvance=27    page=0  chnl=15
char id=51   x=0     y=43    width=27    height=42    xoffset=0     yoffset=0     xadvance=27    page=0  chnl=15
char id=52   x=138   y=0     width=29    height=42    xoffset=0     yoffset=0     xadvance=29    page=0  chnl=15
char id=53   x=28    y=43    width=27    height=42    xoffset=0     yoffset=0     xadvance=27    page=0  chnl=15
char id=54   x=56    y=43    width=27    height=42    xoffset=0     yoffset=0     xadvance=27    page=0  chnl=15
char id=55   x=84    y=43    width=27    height=42    xoffset=0     yoffset=0     xadvance=27    page=0  chnl=15
char id=56   x=168   y=0     width=28    height=42    xoffset=0     yoffset=0     xadvance=28    page=0  chnl=15
char id=57   x=112   y=43    width=27    height=42    xoffset=0     yoffset=0     xadvance=27    page=0  chnl=15
char id=19975 x=0     y=0     width=38    height=42    xoffset=0     yoffset=0     xadvance=38    page=0  chnl=15
char id=20159 x=39    y=0     width=38    height=42    xoffset=0     yoffset=0     xadvance=38    page=0  chnl=15
