info face="Hiragino Sans GB W6" size=-23 bold=0 italic=0 charset="" unicode=1 stretchH=100 smooth=1 aa=1 padding=2,2,2,2 spacing=1,1 outline=0
common lineHeight=28 base=23 scaleW=256 scaleH=256 pages=1 packed=0 alphaChnl=1 redChnl=0 greenChnl=0 blueChnl=0
page id=0 file="shark_paomadeng.png"
chars count=10
char id=48   x=100   y=0     width=18    height=22    xoffset=-1    yoffset=3     xadvance=16    page=0  chnl=15
char id=49   x=176   y=0     width=12    height=22    xoffset=1     yoffset=3     xadvance=16    page=0  chnl=15
char id=50   x=0     y=0     width=19    height=23    xoffset=-1    yoffset=3     xadvance=16    page=0  chnl=15
char id=51   x=20    y=0     width=19    height=23    xoffset=-2    yoffset=2     xadvance=16    page=0  chnl=15
char id=52   x=78    y=0     width=21    height=22    xoffset=-2    yoffset=3     xadvance=16    page=0  chnl=15
char id=53   x=119   y=0     width=18    height=22    xoffset=-1    yoffset=3     xadvance=16    page=0  chnl=15
char id=54   x=138   y=0     width=18    height=22    xoffset=-1    yoffset=3     xadvance=16    page=0  chnl=15
char id=55   x=40    y=0     width=18    height=23    xoffset=-1    yoffset=2     xadvance=16    page=0  chnl=15
char id=56   x=157   y=0     width=18    height=22    xoffset=-1    yoffset=3     xadvance=16    page=0  chnl=15
char id=57   x=59    y=0     width=18    height=23    xoffset=-1    yoffset=2     xadvance=16    page=0  chnl=15
