info face="jinbi-export" size=32 bold=0 italic=0 charset="" unicode=0 stretchH=100 smooth=1 aa=1 padding=0,0,0,0 spacing=1,1
common lineHeight=80 base=26 scaleW=128 scaleH=64 pages=1 packed=0 alphaChnl=1 redChnl=0 greenChnl=0 blueChnl=0
page id=0 file="C:\Users\Administrator\Desktop\jinbi-export.png"
chars count=13
char id=49 x=78 y=28 width=13 height=26 xoffset=0 yoffset=53 xadvance=14 page=0 chnl=0 letter="1"
char id=50 x=59 y=27 width=18 height=26 xoffset=0 yoffset=53 xadvance=19 page=0 chnl=0 letter="2"
char id=51 x=60 y=0 width=17 height=25 xoffset=0 yoffset=54 xadvance=18 page=0 chnl=0 letter="3"
char id=52 x=40 y=0 width=19 height=26 xoffset=0 yoffset=54 xadvance=20 page=0 chnl=0 letter="4"
char id=53 x=20 y=0 width=19 height=25 xoffset=0 yoffset=54 xadvance=20 page=0 chnl=0 letter="5"
char id=54 x=78 y=0 width=17 height=27 xoffset=0 yoffset=53 xadvance=18 page=0 chnl=0 letter="6"
char id=55 x=20 y=26 width=19 height=25 xoffset=0 yoffset=54 xadvance=20 page=0 chnl=0 letter="7"
char id=56 x=0 y=0 width=19 height=27 xoffset=0 yoffset=53 xadvance=20 page=0 chnl=0 letter="8"
char id=57 x=40 y=27 width=18 height=27 xoffset=0 yoffset=53 xadvance=19 page=0 chnl=0 letter="9"
char id=48 x=0 y=28 width=19 height=27 xoffset=0 yoffset=53 xadvance=20 page=0 chnl=0 letter="0"
char id=46 x=0 y=56 width=7 height=7 xoffset=0 yoffset=73 xadvance=8 page=0 chnl=0 letter="."
char id=32 x=0 y=0 width=0 height=0 xoffset=0 yoffset=0 xadvance=20 page=0 chnl=0 letter=" "
char id=9 x=0 y=0 width=0 height=0 xoffset=0 yoffset=0 xadvance=160 page=0 chnl=0 letter="	"

kernings count=0
