﻿info face="微软雅黑" size=32 bold=0 italic=0 charset="" unicode=1 stretchH=100 smooth=1 aa=1 padding=0,0,0,0 spacing=1,1 outline=0
common lineHeight=32 base=26 scaleW=150 scaleH=150 pages=1 packed=0 alphaChnl=0 redChnl=0 greenChnl=0 blueChnl=0
page id=0 file="chouma_sz.png"
chars count=13
char id=46   x=124   y=44    width=15    height=43    xoffset=0     yoffset=0     xadvance=15    page=0  chnl=15
char id=48   x=75    y=0     width=30    height=43    xoffset=0     yoffset=0     xadvance=30    page=0  chnl=15
char id=49   x=106   y=0     width=30    height=43    xoffset=0     yoffset=0     xadvance=30    page=0  chnl=15
char id=50   x=0     y=44    width=30    height=43    xoffset=0     yoffset=0     xadvance=30    page=0  chnl=15
char id=51   x=31    y=44    width=30    height=43    xoffset=0     yoffset=0     xadvance=30    page=0  chnl=15
char id=52   x=62    y=44    width=30    height=43    xoffset=0     yoffset=0     xadvance=30    page=0  chnl=15
char id=53   x=93    y=44    width=30    height=43    xoffset=0     yoffset=0     xadvance=30    page=0  chnl=15
char id=54   x=0     y=88    width=30    height=43    xoffset=0     yoffset=0     xadvance=30    page=0  chnl=15
char id=55   x=31    y=88    width=30    height=43    xoffset=0     yoffset=0     xadvance=30    page=0  chnl=15
char id=56   x=62    y=88    width=30    height=43    xoffset=0     yoffset=0     xadvance=30    page=0  chnl=15
char id=57   x=93    y=88    width=30    height=43    xoffset=0     yoffset=0     xadvance=30    page=0  chnl=15
char id=75   x=0     y=0     width=37    height=43    xoffset=0     yoffset=0     xadvance=37    page=0  chnl=15
char id=19975 x=38    y=0     width=36    height=43    xoffset=0     yoffset=0     xadvance=36    page=0  chnl=15
