info face="Arial" size=32 bold=0 italic=0 charset="" unicode=1 stretchH=100 smooth=1 aa=1 padding=0,0,0,0 spacing=1,1 outline=0
common lineHeight=32 base=26 scaleW=90 scaleH=90 pages=1 packed=0 alphaChnl=0 redChnl=0 greenChnl=0 blueChnl=0
page id=0 file="wuniu_huangzi.png"
chars count=11
char id=48   x=44    y=0     width=20    height=27    xoffset=0     yoffset=0     xadvance=20    page=0  chnl=15
char id=49   x=65    y=0     width=20    height=27    xoffset=0     yoffset=0     xadvance=20    page=0  chnl=15
char id=50   x=0     y=0     width=21    height=27    xoffset=0     yoffset=0     xadvance=21    page=0  chnl=15
char id=51   x=0     y=28    width=20    height=27    xoffset=0     yoffset=0     xadvance=20    page=0  chnl=15
char id=52   x=21    y=28    width=20    height=27    xoffset=0     yoffset=0     xadvance=20    page=0  chnl=15
char id=53   x=42    y=28    width=20    height=27    xoffset=0     yoffset=0     xadvance=20    page=0  chnl=15
char id=54   x=63    y=28    width=20    height=27    xoffset=0     yoffset=0     xadvance=20    page=0  chnl=15
char id=55   x=0     y=56    width=20    height=27    xoffset=0     yoffset=0     xadvance=20    page=0  chnl=15
char id=56   x=21    y=56    width=20    height=27    xoffset=0     yoffset=0     xadvance=20    page=0  chnl=15
char id=57   x=42    y=56    width=20    height=27    xoffset=0     yoffset=0     xadvance=20    page=0  chnl=15
char id=120  x=22    y=0     width=21    height=27    xoffset=0     yoffset=0     xadvance=21    page=0  chnl=15
